Data Wrangling with R and the Tidyverse – Manipulating tables with dplyr
…
Subset has one action for rows and one for columns. We filter() rows and select() columns.

Mutate tables (i.e. add new columns, or re-make existing ones) using mutate().

Summarize tables (i.e. perform aggregating calculations) using summarize().

Group and Summarize

General Social Survey data: gss_sm

## library(socviz) # if not loaded
gss_sm

# A tibble: 2,867 × 32
    year    id ballot       age childs sibs   degree race  sex   region income16
   <dbl> <dbl> <labelled> <dbl>  <dbl> <labe> <fct>  <fct> <fct> <fct>  <fct>   
 1  2016     1 1             47      3 2      Bache… White Male  New E… $170000…
 2  2016     2 2             61      0 3      High … White Male  New E… $50000 …
 3  2016     3 3             72      2 3      Bache… White Male  New E… $75000 …
 4  2016     4 1             43      4 3      High … White Fema… New E… $170000…
 5  2016     5 3             55      2 2      Gradu… White Fema… New E… $170000…
 6  2016     6 2             53      2 2      Junio… White Fema… New E… $60000 …
 7  2016     7 1             50      2 2      High … White Male  New E… $170000…
 8  2016     8 3             23      3 6      High … Other Fema… Middl… $30000 …
 9  2016     9 1             45      3 5      High … Black Male  Middl… $60000 …
10  2016    10 3             71      4 1      Junio… White Male  Middl… $60000 …
# ℹ 2,857 more rows
# ℹ 21 more variables: relig <fct>, marital <fct>, padeg <fct>, madeg <fct>,
#   partyid <fct>, polviews <fct>, happy <fct>, partners <fct>, grass <fct>,
#   zodiac <fct>, pres12 <labelled>, wtssall <dbl>, income_rc <fct>,
#   agegrp <fct>, ageq <fct>, siblings <fct>, kids <fct>, religion <fct>,
#   bigregion <fct>, partners_rc <fct>, obama <dbl>
…
Summarizing a Table

gss_sm |> 
  select(id, bigregion, religion)

# A tibble: 2,867 × 3
      id bigregion religion  
   <dbl> <fct>     <fct>     
 1     1 Northeast None      
 2     2 Northeast None      
 3     3 Northeast Catholic  
 4     4 Northeast Catholic  
 5     5 Northeast None      
 6     6 Northeast None      
 7     7 Northeast None      
 8     8 Northeast Catholic  
 9     9 Northeast Protestant
10    10 Northeast None      
# ℹ 2,857 more rows

We’re just taking a look at the relevant columns here.

Group by one column or variable

gss_sm |> 
  group_by(bigregion)

# A tibble: 2,867 × 32
# Groups:   bigregion [4]
    year    id ballot       age childs sibs   degree race  sex   region income16
   <dbl> <dbl> <labelled> <dbl>  <dbl> <labe> <fct>  <fct> <fct> <fct>  <fct>   
 1  2016     1 1             47      3 2      Bache… White Male  New E… $170000…
 2  2016     2 2             61      0 3      High … White Male  New E… $50000 …
 3  2016     3 3             72      2 3      Bache… White Male  New E… $75000 …
 4  2016     4 1             43      4 3      High … White Fema… New E… $170000…
 5  2016     5 3             55      2 2      Gradu… White Fema… New E… $170000…
 6  2016     6 2             53      2 2      Junio… White Fema… New E… $60000 …
 7  2016     7 1             50      2 2      High … White Male  New E… $170000…
 8  2016     8 3             23      3 6      High … Other Fema… Middl… $30000 …
 9  2016     9 1             45      3 5      High … Black Male  Middl… $60000 …
10  2016    10 3             71      4 1      Junio… White Male  Middl… $60000 …
# ℹ 2,857 more rows
# ℹ 21 more variables: relig <fct>, marital <fct>, padeg <fct>, madeg <fct>,
#   partyid <fct>, polviews <fct>, happy <fct>, partners <fct>, grass <fct>,
#   zodiac <fct>, pres12 <labelled>, wtssall <dbl>, income_rc <fct>,
#   agegrp <fct>, ageq <fct>, siblings <fct>, kids <fct>, religion <fct>,
#   bigregion <fct>, partners_rc <fct>, obama <dbl>

Grouping just changes the logical structure of the tibble.

Group and summarize by one column

gss_sm

# A tibble: 2,867 × 32
    year    id ballot       age childs sibs   degree race  sex   region income16
   <dbl> <dbl> <labelled> <dbl>  <dbl> <labe> <fct>  <fct> <fct> <fct>  <fct>   
 1  2016     1 1             47      3 2      Bache… White Male  New E… $170000…
 2  2016     2 2             61      0 3      High … White Male  New E… $50000 …
 3  2016     3 3             72      2 3      Bache… White Male  New E… $75000 …
 4  2016     4 1             43      4 3      High … White Fema… New E… $170000…
 5  2016     5 3             55      2 2      Gradu… White Fema… New E… $170000…
 6  2016     6 2             53      2 2      Junio… White Fema… New E… $60000 …
 7  2016     7 1             50      2 2      High … White Male  New E… $170000…
 8  2016     8 3             23      3 6      High … Other Fema… Middl… $30000 …
 9  2016     9 1             45      3 5      High … Black Male  Middl… $60000 …
10  2016    10 3             71      4 1      Junio… White Male  Middl… $60000 …
# ℹ 2,857 more rows
# ℹ 21 more variables: relig <fct>, marital <fct>, padeg <fct>, madeg <fct>,
#   partyid <fct>, polviews <fct>, happy <fct>, partners <fct>, grass <fct>,
#   zodiac <fct>, pres12 <labelled>, wtssall <dbl>, income_rc <fct>,
#   agegrp <fct>, ageq <fct>, siblings <fct>, kids <fct>, religion <fct>,
#   bigregion <fct>, partners_rc <fct>, obama <dbl>

Group and summarize by one column

gss_sm |>
  group_by(bigregion)

# A tibble: 2,867 × 32
# Groups:   bigregion [4]
    year    id ballot       age childs sibs   degree race  sex   region income16
   <dbl> <dbl> <labelled> <dbl>  <dbl> <labe> <fct>  <fct> <fct> <fct>  <fct>   
 1  2016     1 1             47      3 2      Bache… White Male  New E… $170000…
 2  2016     2 2             61      0 3      High … White Male  New E… $50000 …
 3  2016     3 3             72      2 3      Bache… White Male  New E… $75000 …
 4  2016     4 1             43      4 3      High … White Fema… New E… $170000…
 5  2016     5 3             55      2 2      Gradu… White Fema… New E… $170000…
 6  2016     6 2             53      2 2      Junio… White Fema… New E… $60000 …
 7  2016     7 1             50      2 2      High … White Male  New E… $170000…
 8  2016     8 3             23      3 6      High … Other Fema… Middl… $30000 …
 9  2016     9 1             45      3 5      High … Black Male  Middl… $60000 …
10  2016    10 3             71      4 1      Junio… White Male  Middl… $60000 …
# ℹ 2,857 more rows
# ℹ 21 more variables: relig <fct>, marital <fct>, padeg <fct>, madeg <fct>,
#   partyid <fct>, polviews <fct>, happy <fct>, partners <fct>, grass <fct>,
#   zodiac <fct>, pres12 <labelled>, wtssall <dbl>, income_rc <fct>,
#   agegrp <fct>, ageq <fct>, siblings <fct>, kids <fct>, religion <fct>,
#   bigregion <fct>, partners_rc <fct>, obama <dbl>
…
The function n() counts up the rows within each group.

All the other columns are dropped in the summary operation

Your original gss_sm table is untouched

Group and summarize by two columns

gss_sm

# A tibble: 2,867 × 32
    year    id ballot       age childs sibs   degree race  sex   region income16
   <dbl> <dbl> <labelled> <dbl>  <dbl> <labe> <fct>  <fct> <fct> <fct>  <fct>   
 1  2016     1 1             47      3 2      Bache… White Male  New E… $170000…
 2  2016     2 2             61      0 3      High … White Male  New E… $50000 …
 3  2016     3 3             72      2 3      Bache… White Male  New E… $75000 …
 4  2016     4 1             43      4 3      High … White Fema… New E… $170000…
 5  2016     5 3             55      2 2      Gradu… White Fema… New E… $170000…
 6  2016     6 2             53      2 2      Junio… White Fema… New E… $60000 …
 7  2016     7 1             50      2 2      High … White Male  New E… $170000…
 8  2016     8 3             23      3 6      High … Other Fema… Middl… $30000 …
 9  2016     9 1             45      3 5      High … Black Male  Middl… $60000 …
10  2016    10 3             71      4 1      Junio… White Male  Middl… $60000 …
# ℹ 2,857 more rows
# ℹ 21 more variables: relig <fct>, marital <fct>, padeg <fct>, madeg <fct>,
#   partyid <fct>, polviews <fct>, happy <fct>, partners <fct>, grass <fct>,
#   zodiac <fct>, pres12 <labelled>, wtssall <dbl>, income_rc <fct>,
#   agegrp <fct>, ageq <fct>, siblings <fct>, kids <fct>, religion <fct>,
#   bigregion <fct>, partners_rc <fct>, obama <dbl>

Group and summarize by two columns

gss_sm |>
  group_by(bigregion, religion)

# A tibble: 2,867 × 32
# Groups:   bigregion, religion [24]
    year    id ballot       age childs sibs   degree race  sex   region income16
   <dbl> <dbl> <labelled> <dbl>  <dbl> <labe> <fct>  <fct> <fct> <fct>  <fct>   
 1  2016     1 1             47      3 2      Bache… White Male  New E… $170000…
 2  2016     2 2             61      0 3      High … White Male  New E… $50000 …
 3  2016     3 3             72      2 3      Bache… White Male  New E… $75000 …
 4  2016     4 1             43      4 3      High … White Fema… New E… $170000…
 5  2016     5 3             55      2 2      Gradu… White Fema… New E… $170000…
 6  2016     6 2             53      2 2      Junio… White Fema… New E… $60000 …
 7  2016     7 1             50      2 2      High … White Male  New E… $170000…
 8  2016     8 3             23      3 6      High … Other Fema… Middl… $30000 …
 9  2016     9 1             45      3 5      High … Black Male  Middl… $60000 …
10  2016    10 3             71      4 1      Junio… White Male  Middl… $60000 …
# ℹ 2,857 more rows
# ℹ 21 more variables: relig <fct>, marital <fct>, padeg <fct>, madeg <fct>,
#   partyid <fct>, polviews <fct>, happy <fct>, partners <fct>, grass <fct>,
#   zodiac <fct>, pres12 <labelled>, wtssall <dbl>, income_rc <fct>,
#   agegrp <fct>, ageq <fct>, siblings <fct>, kids <fct>, religion <fct>,
#   bigregion <fct>, partners_rc <fct>, obama <dbl>

Group and summarize by two columns

gss_sm |>
  group_by(bigregion, religion) |>
  summarize(total = n())

# A tibble: 24 × 3
# Groups:   bigregion [4]
   bigregion religion   total
   <fct>     <fct>      <int>
 1 Northeast Protestant   158
 2 Northeast Catholic     162
 3 Northeast Jewish        27
 4 Northeast None         112
 5 Northeast Other         28
 6 Northeast <NA>           1
 7 Midwest   Protestant   325
 8 Midwest   Catholic     172
 9 Midwest   Jewish         3
10 Midwest   None         157
# ℹ 14 more rows

The function n() counts up the rows within the innermost (i.e. the rightmost) group.

Calculate frequencies

gss_sm

# A tibble: 2,867 × 32
    year    id ballot       age childs sibs   degree race  sex   region income16
   <dbl> <dbl> <labelled> <dbl>  <dbl> <labe> <fct>  <fct> <fct> <fct>  <fct>   
 1  2016     1 1             47      3 2      Bache… White Male  New E… $170000…
 2  2016     2 2             61      0 3      High … White Male  New E… $50000 …
 3  2016     3 3             72      2 3      Bache… White Male  New E… $75000 …
 4  2016     4 1             43      4 3      High … White Fema… New E… $170000…
 5  2016     5 3             55      2 2      Gradu… White Fema… New E… $170000…
 6  2016     6 2             53      2 2      Junio… White Fema… New E… $60000 …
 7  2016     7 1             50      2 2      High … White Male  New E… $170000…
 8  2016     8 3             23      3 6      High … Other Fema… Middl… $30000 …
 9  2016     9 1             45      3 5      High … Black Male  Middl… $60000 …
10  2016    10 3             71      4 1      Junio… White Male  Middl… $60000 …
# ℹ 2,857 more rows
# ℹ 21 more variables: relig <fct>, marital <fct>, padeg <fct>, madeg <fct>,
#   partyid <fct>, polviews <fct>, happy <fct>, partners <fct>, grass <fct>,
#   zodiac <fct>, pres12 <labelled>, wtssall <dbl>, income_rc <fct>,
#   agegrp <fct>, ageq <fct>, siblings <fct>, kids <fct>, religion <fct>,
#   bigregion <fct>, partners_rc <fct>, obama <dbl>

Calculate frequencies

gss_sm |>
  group_by(bigregion, religion)

# A tibble: 2,867 × 32
# Groups:   bigregion, religion [24]
    year    id ballot       age childs sibs   degree race  sex   region income16
   <dbl> <dbl> <labelled> <dbl>  <dbl> <labe> <fct>  <fct> <fct> <fct>  <fct>   
 1  2016     1 1             47      3 2      Bache… White Male  New E… $170000…
 2  2016     2 2             61      0 3      High … White Male  New E… $50000 …
 3  2016     3 3             72      2 3      Bache… White Male  New E… $75000 …
 4  2016     4 1             43      4 3      High … White Fema… New E… $170000…
 5  2016     5 3             55      2 2      Gradu… White Fema… New E… $170000…
 6  2016     6 2             53      2 2      Junio… White Fema… New E… $60000 …
 7  2016     7 1             50      2 2      High … White Male  New E… $170000…
 8  2016     8 3             23      3 6      High … Other Fema… Middl… $30000 …
 9  2016     9 1             45      3 5      High … Black Male  Middl… $60000 …
10  2016    10 3             71      4 1      Junio… White Male  Middl… $60000 …
# ℹ 2,857 more rows
# ℹ 21 more variables: relig <fct>, marital <fct>, padeg <fct>, madeg <fct>,
#   partyid <fct>, polviews <fct>, happy <fct>, partners <fct>, grass <fct>,
#   zodiac <fct>, pres12 <labelled>, wtssall <dbl>, income_rc <fct>,
#   agegrp <fct>, ageq <fct>, siblings <fct>, kids <fct>, religion <fct>,
#   bigregion <fct>, partners_rc <fct>, obama <dbl>

Calculate frequencies

gss_sm |>
  group_by(bigregion, religion) |>
  summarize(total = n())

# A tibble: 24 × 3
# Groups:   bigregion [4]
   bigregion religion   total
   <fct>     <fct>      <int>
 1 Northeast Protestant   158
 2 Northeast Catholic     162
 3 Northeast Jewish        27
 4 Northeast None         112
 5 Northeast Other         28
 6 Northeast <NA>           1
 7 Midwest   Protestant   325
 8 Midwest   Catholic     172
 9 Midwest   Jewish         3
10 Midwest   None         157
# ℹ 14 more rows

Calculate frequencies

gss_sm |>
  group_by(bigregion, religion) |>
  summarize(total = n()) |>
  mutate(freq = total / sum(total),
           pct = round((freq*100), 1))

# A tibble: 24 × 5
# Groups:   bigregion [4]
   bigregion religion   total    freq   pct
   <fct>     <fct>      <int>   <dbl> <dbl>
 1 Northeast Protestant   158 0.324    32.4
 2 Northeast Catholic     162 0.332    33.2
 3 Northeast Jewish        27 0.0553    5.5
 4 Northeast None         112 0.230    23  
 5 Northeast Other         28 0.0574    5.7
 6 Northeast <NA>           1 0.00205   0.2
 7 Midwest   Protestant   325 0.468    46.8
 8 Midwest   Catholic     172 0.247    24.7
 9 Midwest   Jewish         3 0.00432   0.4
10 Midwest   None         157 0.226    22.6
# ℹ 14 more rows
The function n() counts up the rows

Which rows? The ones fed down the pipeline

The innermost (i.e. the rightmost) group.

Pipelines carry assumptions forward

gss_sm |> 
  group_by(bigregion, religion) |> 
  summarize(total = n()) |> 
  mutate(freq = total / sum(total),
           pct = round((freq*100), 1))

# A tibble: 24 × 5
# Groups:   bigregion [4]
   bigregion religion   total    freq   pct
   <fct>     <fct>      <int>   <dbl> <dbl>
 1 Northeast Protestant   158 0.324    32.4
 2 Northeast Catholic     162 0.332    33.2
 3 Northeast Jewish        27 0.0553    5.5
 4 Northeast None         112 0.230    23  
 5 Northeast Other         28 0.0574    5.7
 6 Northeast <NA>           1 0.00205   0.2
 7 Midwest   Protestant   325 0.468    46.8
 8 Midwest   Catholic     172 0.247    24.7
 9 Midwest   Jewish         3 0.00432   0.4
10 Midwest   None         157 0.226    22.6
# ℹ 14 more rows

Groups are carried forward till summarized or explicitly ungrouped

Summary calculations are done on the innermost group, which then “disappears”.

Pipelines carry assumptions forward

gss_sm |> 
  group_by(bigregion, religion) |> 
  summarize(total = n()) |> 
  mutate(freq = total / sum(total),
           pct = round((freq*100), 1)) 

# A tibble: 24 × 5
# Groups:   bigregion [4]
   bigregion religion   total    freq   pct
   <fct>     <fct>      <int>   <dbl> <dbl>
 1 Northeast Protestant   158 0.324    32.4
 2 Northeast Catholic     162 0.332    33.2
 3 Northeast Jewish        27 0.0553    5.5
 4 Northeast None         112 0.230    23  
 5 Northeast Other         28 0.0574    5.7
 6 Northeast <NA>           1 0.00205   0.2
 7 Midwest   Protestant   325 0.468    46.8
 8 Midwest   Catholic     172 0.247    24.7
 9 Midwest   Jewish         3 0.00432   0.4
10 Midwest   None         157 0.226    22.6
# ℹ 14 more rows

mutate() is quite clever. See how we can immediately use freq, even though we are creating it in the same mutate() expression.

Convenience functions

gss_sm |> 
  group_by(bigregion, religion) |> 
  summarize(total = n()) |> 
  mutate(freq = total / sum(total),
           pct = round((freq*100), 1)) 

# A tibble: 24 × 5
# Groups:   bigregion [4]
   bigregion religion   total    freq   pct
   <fct>     <fct>      <int>   <dbl> <dbl>
 1 Northeast Protestant   158 0.324    32.4
 2 Northeast Catholic     162 0.332    33.2
 3 Northeast Jewish        27 0.0553    5.5
 4 Northeast None         112 0.230    23  
 5 Northeast Other         28 0.0574    5.7
 6 Northeast <NA>           1 0.00205   0.2
 7 Midwest   Protestant   325 0.468    46.8
 8 Midwest   Catholic     172 0.247    24.7
 9 Midwest   Jewish         3 0.00432   0.4
10 Midwest   None         157 0.226    22.6
# ℹ 14 more rows

We’re going to be doing this group_by() … n() step a lot. Some shorthand for it would be useful.

Three options for counting up rows

Use n()

gss_sm |> 
  group_by(bigregion, religion) |> 
  summarize(n = n()) 

# A tibble: 24 × 3
# Groups:   bigregion [4]
   bigregion religion       n
   <fct>     <fct>      <int>
 1 Northeast Protestant   158
 2 Northeast Catholic     162
 3 Northeast Jewish        27
 4 Northeast None         112
 5 Northeast Other         28
 6 Northeast <NA>           1
 7 Midwest   Protestant   325
 8 Midwest   Catholic     172
 9 Midwest   Jewish         3
10 Midwest   None         157
# ℹ 14 more rows

Group it yourself; result is grouped.

Use tally()

gss_sm |> 
  group_by(bigregion, religion) |> 
  tally() 

# A tibble: 24 × 3
# Groups:   bigregion [4]
   bigregion religion       n
   <fct>     <fct>      <int>
 1 Northeast Protestant   158
 2 Northeast Catholic     162
 3 Northeast Jewish        27
 4 Northeast None         112
 5 Northeast Other         28
 6 Northeast <NA>           1
 7 Midwest   Protestant   325
 8 Midwest   Catholic     172
 9 Midwest   Jewish         3
10 Midwest   None         157
# ℹ 14 more rows

More compact; result is grouped.

Use count()

gss_sm |> 
  count(bigregion, religion) 

# A tibble: 24 × 3
   bigregion religion       n
   <fct>     <fct>      <int>
 1 Northeast Protestant   158
 2 Northeast Catholic     162
 3 Northeast Jewish        27
 4 Northeast None         112
 5 Northeast Other         28
 6 Northeast <NA>           1
 7 Midwest   Protestant   325
 8 Midwest   Catholic     172
 9 Midwest   Jewish         3
10 Midwest   None         157
# ℹ 14 more rows
…
Pass results on to … an object

You can do it like this …

rel_by_region <- gss_sm |> 
  count(bigregion, religion) |> 
  mutate(pct = round((n/sum(n))*100, 1)) 

rel_by_region

# A tibble: 24 × 4
   bigregion religion       n   pct
   <fct>     <fct>      <int> <dbl>
 1 Northeast Protestant   158   5.5
 2 Northeast Catholic     162   5.7
 3 Northeast Jewish        27   0.9
 4 Northeast None         112   3.9
 5 Northeast Other         28   1  
 6 Northeast <NA>           1   0  
 7 Midwest   Protestant   325  11.3
 8 Midwest   Catholic     172   6  
 9 Midwest   Jewish         3   0.1
10 Midwest   None         157   5.5
# ℹ 14 more rows
…
