Data Wrangling with R and the Tidyverse – Manipulating tables with dplyr
…
library(here)      # manage file paths
library(socviz)    # data and some useful functions
library(tidyverse) # your friend and mine

dplyr’s window functions

Ranking and cumulation within groups.

## Data on COVID-19
library(covdata)

covnat_weekly 

# A tibble: 4,966 × 11
   date       year_week cname   iso3      pop cases deaths cu_cases cu_deaths
   <date>     <chr>     <chr>   <chr>   <dbl> <dbl>  <dbl>    <dbl>     <dbl>
 1 2019-12-30 2020-01   Austria AUT   8932664    NA     NA       NA        NA
 2 2020-01-06 2020-02   Austria AUT   8932664    NA     NA       NA        NA
 3 2020-01-13 2020-03   Austria AUT   8932664    NA     NA       NA        NA
 4 2020-01-20 2020-04   Austria AUT   8932664    NA     NA       NA        NA
 5 2020-01-27 2020-05   Austria AUT   8932664    NA     NA       NA        NA
 6 2020-02-03 2020-06   Austria AUT   8932664    NA     NA       NA        NA
 7 2020-02-10 2020-07   Austria AUT   8932664    NA     NA       NA        NA
 8 2020-02-17 2020-08   Austria AUT   8932664    NA     NA       NA        NA
 9 2020-02-24 2020-09   Austria AUT   8932664    12      0       12         0
10 2020-03-02 2020-10   Austria AUT   8932664   115      0      127         0
# ℹ 4,956 more rows
# ℹ 2 more variables: r14_cases <dbl>, r14_deaths <dbl>

dplyr’s window functions

cumsum() gives cumulative sums

covnat_weekly |> 
  filter(iso3 == "FRA") |> 
  select(date, cname, iso3, cases) |> 
  mutate(cases = ifelse(is.na(cases), 0, cases), # convert NA vals in `cases` to 0
         cumulative = cumsum(cases)) 

# A tibble: 159 × 5
   date       cname  iso3  cases cumulative
   <date>     <chr>  <chr> <dbl>      <dbl>
 1 2019-12-30 France FRA       0          0
 2 2020-01-06 France FRA       0          0
 3 2020-01-13 France FRA       0          0
 4 2020-01-20 France FRA       3          3
 5 2020-01-27 France FRA       3          6
 6 2020-02-03 France FRA       6         12
 7 2020-02-10 France FRA       0         12
 8 2020-02-17 France FRA       4         16
 9 2020-02-24 France FRA     133        149
10 2020-03-02 France FRA     981       1130
# ℹ 149 more rows
…
The dplyr vignette on Window functions is good.

An application

covus |> 
  filter(measure == "death") |> 
  group_by(state) |> 
  arrange(state, desc(date)) |> 
  filter(state %in% "NY")

# A tibble: 371 × 7
# Groups:   state [1]
   date       state fips  data_quality_grade measure count measure_label
   <date>     <chr> <chr> <lgl>              <chr>   <dbl> <chr>        
 1 2021-03-07 NY    36    NA                 death   39029 Deaths       
 2 2021-03-06 NY    36    NA                 death   38970 Deaths       
 3 2021-03-05 NY    36    NA                 death   38891 Deaths       
 4 2021-03-04 NY    36    NA                 death   38796 Deaths       
 5 2021-03-03 NY    36    NA                 death   38735 Deaths       
 6 2021-03-02 NY    36    NA                 death   38660 Deaths       
 7 2021-03-01 NY    36    NA                 death   38577 Deaths       
 8 2021-02-28 NY    36    NA                 death   38497 Deaths       
 9 2021-02-27 NY    36    NA                 death   38407 Deaths       
10 2021-02-26 NY    36    NA                 death   38321 Deaths       
# ℹ 361 more rows
…
An application

We can write the expression directly:

covus |>
  select(-data_quality_grade) |> 
  filter(measure == "death") |>
  group_by(state) |>
  arrange(date) |> 
  mutate(deaths_daily = count - lag(count, order_by = date)) |> 
  arrange(state, desc(date)) |> 
  filter(state %in% "NY")

# A tibble: 371 × 7
# Groups:   state [1]
   date       state fips  measure count measure_label deaths_daily
   <date>     <chr> <chr> <chr>   <dbl> <chr>                <dbl>
 1 2021-03-07 NY    36    death   39029 Deaths                  59
 2 2021-03-06 NY    36    death   38970 Deaths                  79
 3 2021-03-05 NY    36    death   38891 Deaths                  95
 4 2021-03-04 NY    36    death   38796 Deaths                  61
 5 2021-03-03 NY    36    death   38735 Deaths                  75
 6 2021-03-02 NY    36    death   38660 Deaths                  83
 7 2021-03-01 NY    36    death   38577 Deaths                  80
 8 2021-02-28 NY    36    death   38497 Deaths                  90
 9 2021-02-27 NY    36    death   38407 Deaths                  86
10 2021-02-26 NY    36    death   38321 Deaths                  94
# ℹ 361 more rows
…
Writing our own functions

Now we can use it like any other:

covus |>
  filter(measure == "death") |>
  select(-data_quality_grade) |> 
  group_by(state) |>
  arrange(date) |> 
  mutate(deaths_daily = get_daily_count(count, date)) |> 
  arrange(state, desc(date)) |> 
  filter(state %in% "NY")

# A tibble: 371 × 7
# Groups:   state [1]
   date       state fips  measure count measure_label deaths_daily
   <date>     <chr> <chr> <chr>   <dbl> <chr>                <dbl>
 1 2021-03-07 NY    36    death   39029 Deaths                  59
 2 2021-03-06 NY    36    death   38970 Deaths                  79
 3 2021-03-05 NY    36    death   38891 Deaths                  95
 4 2021-03-04 NY    36    death   38796 Deaths                  61
 5 2021-03-03 NY    36    death   38735 Deaths                  75
 6 2021-03-02 NY    36    death   38660 Deaths                  83
 7 2021-03-01 NY    36    death   38577 Deaths                  80
 8 2021-02-28 NY    36    death   38497 Deaths                  90
 9 2021-02-27 NY    36    death   38407 Deaths                  86
10 2021-02-26 NY    36    death   38321 Deaths                  94
# ℹ 361 more rows
…
covus |>
  filter(measure == "death") |>
  select(-data_quality_grade) |> 
  group_by(state) |>
  arrange(date) |> 
  mutate(
    deaths_daily = get_daily_count(count, date), 
    deaths7 = slide_mean(deaths_daily, 
                         before = 7, 
                         na_rm = TRUE)) |> 
  arrange(state, desc(date)) |> 
  filter(state %in% "NY")

# A tibble: 371 × 8
# Groups:   state [1]
   date       state fips  measure count measure_label deaths_daily deaths7
   <date>     <chr> <chr> <chr>   <dbl> <chr>                <dbl>   <dbl>
 1 2021-03-07 NY    36    death   39029 Deaths                  59    77.8
 2 2021-03-06 NY    36    death   38970 Deaths                  79    81.1
 3 2021-03-05 NY    36    death   38891 Deaths                  95    83  
 4 2021-03-04 NY    36    death   38796 Deaths                  61    82.6
 5 2021-03-03 NY    36    death   38735 Deaths                  75    88  
 6 2021-03-02 NY    36    death   38660 Deaths                  83    89.9
 7 2021-03-01 NY    36    death   38577 Deaths                  80    90.8
 8 2021-02-28 NY    36    death   38497 Deaths                  90    90.1
 9 2021-02-27 NY    36    death   38407 Deaths                  86    91.5
10 2021-02-26 NY    36    death   38321 Deaths                  94    95.6
# ℹ 361 more rows
Tidy moving averages with slider

    deaths7 = slide_mean(deaths_daily, 
                         before = 7, 
                         na_rm = TRUE)) |> 

Notice the Tidyverse-style na_rm argument rather than the usual base na.rm

The package provides a lot of different functions, from general-purpose slide_max(), slide_min() to more specialized sliding functions. In particular note e.g. slide_index_mean() that addresses some subtleties in averaging over dates with gaps.

Move columns with relocate()

gss_sm

# A tibble: 2,867 × 32
    year    id ballot       age childs sibs   degree race  sex   region income16
   <dbl> <dbl> <labelled> <dbl>  <dbl> <labe> <fct>  <fct> <fct> <fct>  <fct>   
 1  2016     1 1             47      3 2      Bache… White Male  New E… $170000…
 2  2016     2 2             61      0 3      High … White Male  New E… $50000 …
 3  2016     3 3             72      2 3      Bache… White Male  New E… $75000 …
 4  2016     4 1             43      4 3      High … White Fema… New E… $170000…
 5  2016     5 3             55      2 2      Gradu… White Fema… New E… $170000…
 6  2016     6 2             53      2 2      Junio… White Fema… New E… $60000 …
 7  2016     7 1             50      2 2      High … White Male  New E… $170000…
 8  2016     8 3             23      3 6      High … Other Fema… Middl… $30000 …
 9  2016     9 1             45      3 5      High … Black Male  Middl… $60000 …
10  2016    10 3             71      4 1      Junio… White Male  Middl… $60000 …
# ℹ 2,857 more rows
# ℹ 21 more variables: relig <fct>, marital <fct>, padeg <fct>, madeg <fct>,
#   partyid <fct>, polviews <fct>, happy <fct>, partners <fct>, grass <fct>,
#   zodiac <fct>, pres12 <labelled>, wtssall <dbl>, income_rc <fct>,
#   agegrp <fct>, ageq <fct>, siblings <fct>, kids <fct>, religion <fct>,
#   bigregion <fct>, partners_rc <fct>, obama <dbl>

Shuffle columns around

gss_sm

# A tibble: 2,867 × 32
    year    id ballot       age childs sibs   degree race  sex   region income16
   <dbl> <dbl> <labelled> <dbl>  <dbl> <labe> <fct>  <fct> <fct> <fct>  <fct>   
 1  2016     1 1             47      3 2      Bache… White Male  New E… $170000…
 2  2016     2 2             61      0 3      High … White Male  New E… $50000 …
 3  2016     3 3             72      2 3      Bache… White Male  New E… $75000 …
 4  2016     4 1             43      4 3      High … White Fema… New E… $170000…
 5  2016     5 3             55      2 2      Gradu… White Fema… New E… $170000…
 6  2016     6 2             53      2 2      Junio… White Fema… New E… $60000 …
 7  2016     7 1             50      2 2      High … White Male  New E… $170000…
 8  2016     8 3             23      3 6      High … Other Fema… Middl… $30000 …
 9  2016     9 1             45      3 5      High … Black Male  Middl… $60000 …
10  2016    10 3             71      4 1      Junio… White Male  Middl… $60000 …
# ℹ 2,857 more rows
# ℹ 21 more variables: relig <fct>, marital <fct>, padeg <fct>, madeg <fct>,
#   partyid <fct>, polviews <fct>, happy <fct>, partners <fct>, grass <fct>,
#   zodiac <fct>, pres12 <labelled>, wtssall <dbl>, income_rc <fct>,
#   agegrp <fct>, ageq <fct>, siblings <fct>, kids <fct>, religion <fct>,
#   bigregion <fct>, partners_rc <fct>, obama <dbl>

Shuffle columns around

gss_sm |>
  select(region, bigregion, year,
         id:region,
         starts_with("p"),
         contains("income"))

# A tibble: 2,867 × 19
   region     bigregion  year    id ballot   age childs sibs  degree race  sex  
   <fct>      <fct>     <dbl> <dbl> <labe> <dbl>  <dbl> <lab> <fct>  <fct> <fct>
 1 New Engla… Northeast  2016     1 1         47      3 2     Bache… White Male 
 2 New Engla… Northeast  2016     2 2         61      0 3     High … White Male 
 3 New Engla… Northeast  2016     3 3         72      2 3     Bache… White Male 
 4 New Engla… Northeast  2016     4 1         43      4 3     High … White Fema…
 5 New Engla… Northeast  2016     5 3         55      2 2     Gradu… White Fema…
 6 New Engla… Northeast  2016     6 2         53      2 2     Junio… White Fema…
 7 New Engla… Northeast  2016     7 1         50      2 2     High … White Male 
 8 Middle At… Northeast  2016     8 3         23      3 6     High … Other Fema…
 9 Middle At… Northeast  2016     9 1         45      3 5     High … Black Male 
10 Middle At… Northeast  2016    10 3         71      4 1     Junio… White Male 
# ℹ 2,857 more rows
# ℹ 8 more variables: padeg <fct>, partyid <fct>, polviews <fct>,
#   partners <fct>, pres12 <labelled>, partners_rc <fct>, income16 <fct>,
#   income_rc <fct>

Shuffle columns around

gss_sm |>
  select(region, bigregion, year,
         id:region,
         starts_with("p"),
         contains("income")) |>
  rename(children = childs,
         siblings = sibs)

# A tibble: 2,867 × 19
   region      bigregion  year    id ballot   age children siblings degree race 
   <fct>       <fct>     <dbl> <dbl> <labe> <dbl>    <dbl> <labell> <fct>  <fct>
 1 New England Northeast  2016     1 1         47        3 2        Bache… White
 2 New England Northeast  2016     2 2         61        0 3        High … White
 3 New England Northeast  2016     3 3         72        2 3        Bache… White
 4 New England Northeast  2016     4 1         43        4 3        High … White
 5 New England Northeast  2016     5 3         55        2 2        Gradu… White
 6 New England Northeast  2016     6 2         53        2 2        Junio… White
 7 New England Northeast  2016     7 1         50        2 2        High … White
 8 Middle Atl… Northeast  2016     8 3         23        3 6        High … Other
 9 Middle Atl… Northeast  2016     9 1         45        3 5        High … Black
10 Middle Atl… Northeast  2016    10 3         71        4 1        Junio… White
# ℹ 2,857 more rows
# ℹ 9 more variables: sex <fct>, padeg <fct>, partyid <fct>, polviews <fct>,
#   partners <fct>, pres12 <labelled>, partners_rc <fct>, income16 <fct>,
#   income_rc <fct>

Shuffle columns around

gss_sm |>
  select(region, bigregion, year,
         id:region,
         starts_with("p"),
         contains("income")) |>
  rename(children = childs,
         siblings = sibs) |>
  relocate(id)

# A tibble: 2,867 × 19
      id region      bigregion  year ballot   age children siblings degree race 
   <dbl> <fct>       <fct>     <dbl> <labe> <dbl>    <dbl> <labell> <fct>  <fct>
 1     1 New England Northeast  2016 1         47        3 2        Bache… White
 2     2 New England Northeast  2016 2         61        0 3        High … White
 3     3 New England Northeast  2016 3         72        2 3        Bache… White
 4     4 New England Northeast  2016 1         43        4 3        High … White
 5     5 New England Northeast  2016 3         55        2 2        Gradu… White
 6     6 New England Northeast  2016 2         53        2 2        Junio… White
 7     7 New England Northeast  2016 1         50        2 2        High … White
 8     8 Middle Atl… Northeast  2016 3         23        3 6        High … Other
 9     9 Middle Atl… Northeast  2016 1         45        3 5        High … Black
10    10 Middle Atl… Northeast  2016 3         71        4 1        Junio… White
# ℹ 2,857 more rows
# ℹ 9 more variables: sex <fct>, padeg <fct>, partyid <fct>, polviews <fct>,
#   partners <fct>, pres12 <labelled>, partners_rc <fct>, income16 <fct>,
#   income_rc <fct>

Shuffle columns around

gss_sm |>
  select(region, bigregion, year,
         id:region,
         starts_with("p"),
         contains("income")) |>
  rename(children = childs,
         siblings = sibs) |>
  relocate(id) |>
  select(-ballot)

# A tibble: 2,867 × 18
      id region bigregion  year   age children siblings degree race  sex   padeg
   <dbl> <fct>  <fct>     <dbl> <dbl>    <dbl> <labell> <fct>  <fct> <fct> <fct>
 1     1 New E… Northeast  2016    47        3 2        Bache… White Male  Grad…
 2     2 New E… Northeast  2016    61        0 3        High … White Male  Lt H…
 3     3 New E… Northeast  2016    72        2 3        Bache… White Male  High…
 4     4 New E… Northeast  2016    43        4 3        High … White Fema… <NA> 
 5     5 New E… Northeast  2016    55        2 2        Gradu… White Fema… Bach…
 6     6 New E… Northeast  2016    53        2 2        Junio… White Fema… <NA> 
 7     7 New E… Northeast  2016    50        2 2        High … White Male  High…
 8     8 Middl… Northeast  2016    23        3 6        High … Other Fema… Lt H…
 9     9 Middl… Northeast  2016    45        3 5        High … Black Male  Lt H…
10    10 Middl… Northeast  2016    71        4 1        Junio… White Male  High…
# ℹ 2,857 more rows
# ℹ 7 more variables: partyid <fct>, polviews <fct>, partners <fct>,
#   pres12 <labelled>, partners_rc <fct>, income16 <fct>, income_rc <fct>
Shuffle columns around

gss_sm |>
  select(region, bigregion, year,
         id:region,
         starts_with("p"),
         contains("income")) |>
  rename(children = childs,
         siblings = sibs) |>
  relocate(id) |>
  select(-ballot) |>
  relocate(where(is.numeric),
           .before = where(is.factor))

# A tibble: 2,867 × 18
      id  year   age children siblings   pres12    region bigregion degree race 
   <dbl> <dbl> <dbl>    <dbl> <labelled> <labelle> <fct>  <fct>     <fct>  <fct>
 1     1  2016    47        3 2           3        New E… Northeast Bache… White
 2     2  2016    61        0 3           1        New E… Northeast High … White
 3     3  2016    72        2 3           2        New E… Northeast Bache… White
 4     4  2016    43        4 3           2        New E… Northeast High … White
 5     5  2016    55        2 2           1        New E… Northeast Gradu… White
 6     6  2016    53        2 2           1        New E… Northeast Junio… White
 7     7  2016    50        2 2          NA        New E… Northeast High … White
 8     8  2016    23        3 6          NA        Middl… Northeast High … Other
 9     9  2016    45        3 5          NA        Middl… Northeast High … Black
10    10  2016    71        4 1           2        Middl… Northeast Junio… White
# ℹ 2,857 more rows
# ℹ 8 more variables: sex <fct>, padeg <fct>, partyid <fct>, polviews <fct>,
#   partners <fct>, partners_rc <fct>, income16 <fct>, income_rc <fct>
…
gss_sm |>
  select(region, bigregion, year,
         id:region,
         starts_with("p"),
         contains("income")) |>
  rename(children = childs,
         siblings = sibs) |>
  relocate(id) |>
  select(-ballot) |>
  relocate(where(is.numeric),
           .before = where(is.factor)) |>
  relocate(contains("region"),
           .after = year)

# A tibble: 2,867 × 18
      id  year region      bigregion   age children siblings pres12 degree race 
   <dbl> <dbl> <fct>       <fct>     <dbl>    <dbl> <labell> <labe> <fct>  <fct>
 1     1  2016 New England Northeast    47        3 2         3     Bache… White
 2     2  2016 New England Northeast    61        0 3         1     High … White
 3     3  2016 New England Northeast    72        2 3         2     Bache… White
 4     4  2016 New England Northeast    43        4 3         2     High … White
 5     5  2016 New England Northeast    55        2 2         1     Gradu… White
 6     6  2016 New England Northeast    53        2 2         1     Junio… White
 7     7  2016 New England Northeast    50        2 2        NA     High … White
 8     8  2016 Middle Atl… Northeast    23        3 6        NA     High … Other
 9     9  2016 Middle Atl… Northeast    45        3 5        NA     High … Black
10    10  2016 Middle Atl… Northeast    71        4 1         2     Junio… White
# ℹ 2,857 more rows
# ℹ 8 more variables: sex <fct>, padeg <fct>, partyid <fct>, polviews <fct>,
#   partners <fct>, partners_rc <fct>, income16 <fct>, income_rc <fct>

Example: UK Election Data

library(ukelection2019)

ukvote2019

# A tibble: 3,320 × 13
   cid     constituency electorate party_name candidate votes vote_share_percent
   <chr>   <chr>             <int> <chr>      <chr>     <int>              <dbl>
 1 W07000… Aberavon          50747 Labour     Stephen … 17008               53.8
 2 W07000… Aberavon          50747 Conservat… Charlott…  6518               20.6
 3 W07000… Aberavon          50747 The Brexi… Glenda D…  3108                9.8
 4 W07000… Aberavon          50747 Plaid Cym… Nigel Hu…  2711                8.6
 5 W07000… Aberavon          50747 Liberal D… Sheila K…  1072                3.4
 6 W07000… Aberavon          50747 Independe… Captain …   731                2.3
 7 W07000… Aberavon          50747 Green      Giorgia …   450                1.4
 8 W07000… Aberconwy         44699 Conservat… Robin Mi… 14687               46.1
 9 W07000… Aberconwy         44699 Labour     Emily Ow… 12653               39.7
10 W07000… Aberconwy         44699 Plaid Cym… Lisa Goo…  2704                8.5
# ℹ 3,310 more rows
# ℹ 6 more variables: vote_share_change <dbl>, total_votes_cast <int>,
#   vrank <int>, turnout <dbl>, fname <chr>, lname <chr>
…
