Data Wrangling with R and the Tidyverse – Tidy data
…
Then transform it back to something wider if needed.

This isn’t an iron rule

As we’ll see later, dplyr is able to do “rowwise” operations if you need them.

It is a
pretty good
rule though

Tidy data

gapminder

# A tibble: 1,704 × 6
   country     continent  year lifeExp      pop gdpPercap
   <fct>       <fct>     <int>   <dbl>    <int>     <dbl>
 1 Afghanistan Asia       1952    28.8  8425333      779.
 2 Afghanistan Asia       1957    30.3  9240934      821.
 3 Afghanistan Asia       1962    32.0 10267083      853.
 4 Afghanistan Asia       1967    34.0 11537966      836.
 5 Afghanistan Asia       1972    36.1 13079460      740.
 6 Afghanistan Asia       1977    38.4 14880372      786.
 7 Afghanistan Asia       1982    39.9 12881816      978.
 8 Afghanistan Asia       1987    40.8 13867957      852.
 9 Afghanistan Asia       1992    41.7 16317921      649.
10 Afghanistan Asia       1997    41.8 22227415      635.
# ℹ 1,694 more rows
…
Untidy data: common for good reasons

Storing data in long form is often inefficient

library(covdata)
covus |> 
  filter(state == "NY") |> 
  select(date:fips, measure:count)

# A tibble: 11,872 × 5
   date       state fips  measure                    count
   <date>     <chr> <chr> <chr>                      <dbl>
 1 2021-03-07 NY    36    positive                 1681169
 2 2021-03-07 NY    36    probable_cases                NA
 3 2021-03-07 NY    36    negative                      NA
 4 2021-03-07 NY    36    pending                       NA
 5 2021-03-07 NY    36    hospitalized_currently      4789
 6 2021-03-07 NY    36    hospitalized_cumulative       NA
 7 2021-03-07 NY    36    in_icu_currently             999
 8 2021-03-07 NY    36    in_icu_cumulative             NA
 9 2021-03-07 NY    36    on_ventilator_currently      682
10 2021-03-07 NY    36    on_ventilator_cumulative      NA
# ℹ 11,862 more rows
…
The most common tidyr operation

edu

# A tibble: 366 × 11
   age   sex    year total elem4 elem8   hs3   hs4 coll3 coll4 median
   <chr> <chr> <int> <int> <int> <int> <dbl> <dbl> <dbl> <dbl>  <dbl>
 1 25-34 Male   2016 21845   116   468  1427  6386  6015  7432     NA
 2 25-34 Male   2015 21427   166   488  1584  6198  5920  7071     NA
 3 25-34 Male   2014 21217   151   512  1611  6323  5910  6710     NA
 4 25-34 Male   2013 20816   161   582  1747  6058  5749  6519     NA
 5 25-34 Male   2012 20464   161   579  1707  6127  5619  6270     NA
 6 25-34 Male   2011 20985   190   657  1791  6444  5750  6151     NA
 7 25-34 Male   2010 20689   186   641  1866  6458  5587  5951     NA
 8 25-34 Male   2009 20440   184   695  1806  6495  5508  5752     NA
 9 25-34 Male   2008 20210   172   714  1874  6356  5277  5816     NA
10 25-34 Male   2007 20024   246   757  1930  6361  5137  5593     NA
# ℹ 356 more rows

The “Level of Schooling Attained” measure is spread across the columns, from elem4 to coll4.

This is fine for a compact table, but for us it should be a single measure, say, “education”.

Wide to long with pivot_longer()

We’re going to pivot the table. That is, we’ll put the columns elem4:coll4 into a new column, creating a new categorical measure named education. The numbers currently under each column will become a new value column corresponding to that level of education.

edu |> 
  pivot_longer(elem4:coll4, names_to = "education")

# A tibble: 2,196 × 7
   age   sex    year total median education value
   <chr> <chr> <int> <int>  <dbl> <chr>     <dbl>
 1 25-34 Male   2016 21845     NA elem4       116
 2 25-34 Male   2016 21845     NA elem8       468
 3 25-34 Male   2016 21845     NA hs3        1427
 4 25-34 Male   2016 21845     NA hs4        6386
 5 25-34 Male   2016 21845     NA coll3      6015
 6 25-34 Male   2016 21845     NA coll4      7432
 7 25-34 Male   2015 21427     NA elem4       166
 8 25-34 Male   2015 21427     NA elem8       488
 9 25-34 Male   2015 21427     NA hs3        1584
10 25-34 Male   2015 21427     NA hs4        6198
# ℹ 2,186 more rows

Wide to long with pivot_longer()

We can name the “value” column to whatever we like. Here it’s a number of people, so let’s call it “n”.

edu |> 
  pivot_longer(elem4:coll4, names_to = "education", values_to = "n")

# A tibble: 2,196 × 7
   age   sex    year total median education     n
   <chr> <chr> <int> <int>  <dbl> <chr>     <dbl>
 1 25-34 Male   2016 21845     NA elem4       116
 2 25-34 Male   2016 21845     NA elem8       468
 3 25-34 Male   2016 21845     NA hs3        1427
 4 25-34 Male   2016 21845     NA hs4        6386
 5 25-34 Male   2016 21845     NA coll3      6015
 6 25-34 Male   2016 21845     NA coll4      7432
 7 25-34 Male   2015 21427     NA elem4       166
 8 25-34 Male   2015 21427     NA elem8       488
 9 25-34 Male   2015 21427     NA hs3        1584
10 25-34 Male   2015 21427     NA hs4        6198
# ℹ 2,186 more rows
Let’s recode it while we’re here

We use case_match() for simple recoding:

edu |> 
  pivot_longer(elem4:coll4, names_to = "education", values_to = "n") |> 
  mutate(education = case_match(education, 
                                "elem4" ~ "Elementary 4",
                                "elem8" ~ "Elementary 8", 
                                "hs3" ~ "High School 3", 
                                "hs4" ~ "High School 4", 
                                "coll3" ~ "College 3", 
                                "coll4" ~ "College 4"))

# A tibble: 2,196 × 7
   age   sex    year total median education         n
   <chr> <chr> <int> <int>  <dbl> <chr>         <dbl>
 1 25-34 Male   2016 21845     NA Elementary 4    116
 2 25-34 Male   2016 21845     NA Elementary 8    468
 3 25-34 Male   2016 21845     NA High School 3  1427
 4 25-34 Male   2016 21845     NA High School 4  6386
 5 25-34 Male   2016 21845     NA College 3      6015
 6 25-34 Male   2016 21845     NA College 4      7432
 7 25-34 Male   2015 21427     NA Elementary 4    166
 8 25-34 Male   2015 21427     NA Elementary 8    488
 9 25-34 Male   2015 21427     NA High School 3  1584
10 25-34 Male   2015 21427     NA High School 4  6198
# ℹ 2,186 more rows

case_match() to collapse values

edu |> 
  pivot_longer(elem4:coll4, names_to = "education", values_to = "n") |> 
  mutate(education = case_match(education, 
                                c("elem4", "elem8") ~ "Elementary",
                                c("hs3", "hs4") ~ "High School", 
                                c("coll3", "coll4") ~ "College")) 

# A tibble: 2,196 × 7
   age   sex    year total median education       n
   <chr> <chr> <int> <int>  <dbl> <chr>       <dbl>
 1 25-34 Male   2016 21845     NA Elementary    116
 2 25-34 Male   2016 21845     NA Elementary    468
 3 25-34 Male   2016 21845     NA High School  1427
 4 25-34 Male   2016 21845     NA High School  6386
 5 25-34 Male   2016 21845     NA College      6015
 6 25-34 Male   2016 21845     NA College      7432
 7 25-34 Male   2015 21427     NA Elementary    166
 8 25-34 Male   2015 21427     NA Elementary    488
 9 25-34 Male   2015 21427     NA High School  1584
10 25-34 Male   2015 21427     NA High School  6198
# ℹ 2,186 more rows

case_match() to collapse values

edu |> 
  pivot_longer(elem4:coll4, names_to = "education", values_to = "n") |> 
  mutate(education = case_match(education, 
                                c("elem4", "elem8") ~ "Elementary",
                                c("hs3", "hs4") ~ "High School", 
                                c("coll3", "coll4") ~ "College")) |> 
  group_by(age,sex,year, education) |> 
  summarize(n = sum(n)) 

# A tibble: 1,098 × 5
# Groups:   age, sex, year [366]
   age   sex     year education       n
   <chr> <chr>  <int> <chr>       <dbl>
 1 25-34 Female  1940 College      1406
 2 25-34 Female  1940 Elementary   4342
 3 25-34 Female  1940 High School  4986
 4 25-34 Female  1947 College      1555
 5 25-34 Female  1947 Elementary   3329
 6 25-34 Female  1947 High School  6796
 7 25-34 Female  1950 College      1795
 8 25-34 Female  1950 Elementary   3119
 9 25-34 Female  1950 High School  7034
10 25-34 Female  1952 College      1886
# ℹ 1,088 more rows

case_match() and .default

edu |> 
  pivot_longer(elem4:coll4, names_to = "education", values_to = "n") |> 
  mutate(education = case_match(education, 
                                c("elem4", "elem8") ~ "Elementary",
                                .default = "Other"))

# A tibble: 2,196 × 7
   age   sex    year total median education      n
   <chr> <chr> <int> <int>  <dbl> <chr>      <dbl>
 1 25-34 Male   2016 21845     NA Elementary   116
 2 25-34 Male   2016 21845     NA Elementary   468
 3 25-34 Male   2016 21845     NA Other       1427
 4 25-34 Male   2016 21845     NA Other       6386
 5 25-34 Male   2016 21845     NA Other       6015
 6 25-34 Male   2016 21845     NA Other       7432
 7 25-34 Male   2015 21427     NA Elementary   166
 8 25-34 Male   2015 21427     NA Elementary   488
 9 25-34 Male   2015 21427     NA Other       1584
10 25-34 Male   2015 21427     NA Other       6198
# ℹ 2,186 more rows

case_when() for more complex criteria

case_match() replaces values with values. case_when() is more general and can create or recode variables based on criteria from other variables.

edu |> 
  pivot_longer(elem4:coll4, names_to = "education", values_to = "n") |> 
  mutate(
    weird_group = case_when(
      age == "25-34" & year > 1980 & (education %in% c("elem4", "elem8")) ~ "Group 1", 
      age == "25-34" & (year == 2016 | education == "hs3")  ~ "Group 2",
      .default = "Group 3"))

# A tibble: 2,196 × 8
   age   sex    year total median education     n weird_group
   <chr> <chr> <int> <int>  <dbl> <chr>     <dbl> <chr>      
 1 25-34 Male   2016 21845     NA elem4       116 Group 1    
 2 25-34 Male   2016 21845     NA elem8       468 Group 1    
 3 25-34 Male   2016 21845     NA hs3        1427 Group 2    
 4 25-34 Male   2016 21845     NA hs4        6386 Group 2    
 5 25-34 Male   2016 21845     NA coll3      6015 Group 2    
 6 25-34 Male   2016 21845     NA coll4      7432 Group 2    
 7 25-34 Male   2015 21427     NA elem4       166 Group 1    
 8 25-34 Male   2015 21427     NA elem8       488 Group 1    
 9 25-34 Male   2015 21427     NA hs3        1584 Group 2    
10 25-34 Male   2015 21427     NA hs4        6198 Group 3    
# ℹ 2,186 more rows

pivot_longer() implies pivot_wider()

gapminder

# A tibble: 1,704 × 6
   country     continent  year lifeExp      pop gdpPercap
   <fct>       <fct>     <int>   <dbl>    <int>     <dbl>
 1 Afghanistan Asia       1952    28.8  8425333      779.
 2 Afghanistan Asia       1957    30.3  9240934      821.
 3 Afghanistan Asia       1962    32.0 10267083      853.
 4 Afghanistan Asia       1967    34.0 11537966      836.
 5 Afghanistan Asia       1972    36.1 13079460      740.
 6 Afghanistan Asia       1977    38.4 14880372      786.
 7 Afghanistan Asia       1982    39.9 12881816      978.
 8 Afghanistan Asia       1987    40.8 13867957      852.
 9 Afghanistan Asia       1992    41.7 16317921      649.
10 Afghanistan Asia       1997    41.8 22227415      635.
# ℹ 1,694 more rows

But they’re not symmetric operations!

pivot_longer() implies pivot_wider()

gapminder |> 
  select(country, continent, year, lifeExp) |> 
  pivot_wider(names_from = year, values_from = lifeExp) 

# A tibble: 142 × 14
   country     continent `1952` `1957` `1962` `1967` `1972` `1977` `1982` `1987`
   <fct>       <fct>      <dbl>  <dbl>  <dbl>  <dbl>  <dbl>  <dbl>  <dbl>  <dbl>
 1 Afghanistan Asia        28.8   30.3   32.0   34.0   36.1   38.4   39.9   40.8
 2 Albania     Europe      55.2   59.3   64.8   66.2   67.7   68.9   70.4   72  
 3 Algeria     Africa      43.1   45.7   48.3   51.4   54.5   58.0   61.4   65.8
 4 Angola      Africa      30.0   32.0   34     36.0   37.9   39.5   39.9   39.9
 5 Argentina   Americas    62.5   64.4   65.1   65.6   67.1   68.5   69.9   70.8
 6 Australia   Oceania     69.1   70.3   70.9   71.1   71.9   73.5   74.7   76.3
 7 Austria     Europe      66.8   67.5   69.5   70.1   70.6   72.2   73.2   74.9
 8 Bahrain     Asia        50.9   53.8   56.9   59.9   63.3   65.6   69.1   70.8
 9 Bangladesh  Asia        37.5   39.3   41.2   43.5   45.3   46.9   50.0   52.8
10 Belgium     Europe      68     69.2   70.2   70.9   71.4   72.8   73.9   75.4
# ℹ 132 more rows
# ℹ 4 more variables: `1992` <dbl>, `1997` <dbl>, `2002` <dbl>, `2007` <dbl>

What about multiple columns?

This is a pretty common problem. A first thought (“Just don’t mention the other columns”) isn’t it:

gapminder |> 
  pivot_wider(names_from = year, values_from = lifeExp) 

# A tibble: 1,704 × 16
   country  continent    pop gdpPercap `1952` `1957` `1962` `1967` `1972` `1977`
   <fct>    <fct>      <int>     <dbl>  <dbl>  <dbl>  <dbl>  <dbl>  <dbl>  <dbl>
 1 Afghani… Asia      8.43e6      779.   28.8   NA     NA     NA     NA     NA  
 2 Afghani… Asia      9.24e6      821.   NA     30.3   NA     NA     NA     NA  
 3 Afghani… Asia      1.03e7      853.   NA     NA     32.0   NA     NA     NA  
 4 Afghani… Asia      1.15e7      836.   NA     NA     NA     34.0   NA     NA  
 5 Afghani… Asia      1.31e7      740.   NA     NA     NA     NA     36.1   NA  
 6 Afghani… Asia      1.49e7      786.   NA     NA     NA     NA     NA     38.4
 7 Afghani… Asia      1.29e7      978.   NA     NA     NA     NA     NA     NA  
 8 Afghani… Asia      1.39e7      852.   NA     NA     NA     NA     NA     NA  
 9 Afghani… Asia      1.63e7      649.   NA     NA     NA     NA     NA     NA  
10 Afghani… Asia      2.22e7      635.   NA     NA     NA     NA     NA     NA  
# ℹ 1,694 more rows
# ℹ 6 more variables: `1982` <dbl>, `1987` <dbl>, `1992` <dbl>, `1997` <dbl>,
#   `2002` <dbl>, `2007` <dbl>

pop and gdpPercap are still long, and now our table is really sparse.

What about multiple columns?

We need to specify that we want values from more than one column.

gapminder |> 
  select(country, continent, year, lifeExp, gdpPercap) |> 
  pivot_wider(names_from = year, values_from = c(lifeExp, gdpPercap)) 

# A tibble: 142 × 26
   country     continent lifeExp_1952 lifeExp_1957 lifeExp_1962 lifeExp_1967
   <fct>       <fct>            <dbl>        <dbl>        <dbl>        <dbl>
 1 Afghanistan Asia              28.8         30.3         32.0         34.0
 2 Albania     Europe            55.2         59.3         64.8         66.2
 3 Algeria     Africa            43.1         45.7         48.3         51.4
 4 Angola      Africa            30.0         32.0         34           36.0
 5 Argentina   Americas          62.5         64.4         65.1         65.6
 6 Australia   Oceania           69.1         70.3         70.9         71.1
 7 Austria     Europe            66.8         67.5         69.5         70.1
 8 Bahrain     Asia              50.9         53.8         56.9         59.9
 9 Bangladesh  Asia              37.5         39.3         41.2         43.5
10 Belgium     Europe            68           69.2         70.2         70.9
# ℹ 132 more rows
# ℹ 20 more variables: lifeExp_1972 <dbl>, lifeExp_1977 <dbl>,
#   lifeExp_1982 <dbl>, lifeExp_1987 <dbl>, lifeExp_1992 <dbl>,
#   lifeExp_1997 <dbl>, lifeExp_2002 <dbl>, lifeExp_2007 <dbl>,
#   gdpPercap_1952 <dbl>, gdpPercap_1957 <dbl>, gdpPercap_1962 <dbl>,
#   gdpPercap_1967 <dbl>, gdpPercap_1972 <dbl>, gdpPercap_1977 <dbl>,
#   gdpPercap_1982 <dbl>, gdpPercap_1987 <dbl>, gdpPercap_1992 <dbl>, …

This will give us a very wide table, but it’s what we wanted.

Pivot wider while summarizing

# Some made-up data
dfstrat <- read_csv(here::here("data", "dfstrat.csv"))
dfstrat 

# A tibble: 1,000 × 5
   stratum sex   race  educ  income
     <dbl> <chr> <chr> <chr>  <dbl>
 1       6 F     W     HS      83.7
 2       5 F     W     BA     128. 
 3       3 F     B     HS      66.3
 4       3 F     W     HS     111. 
 5       6 M     W     BA     116. 
 6       7 M     B     HS     159. 
 7       8 M     W     BA     131. 
 8       3 M     W     BA      94.4
 9       7 F     B     HS     146. 
10       2 F     W     BA      88.8
# ℹ 990 more rows

Let’s say we want to transform this to a wider format, specifically by widening the educ column, so we end up with columns for both the HS and BA categories, and as we do so we want to calculate both the mean of income and the total n within each group.

Pivot wider while summarizing

dfstrat <- read_csv(here::here("data", "dfstrat.csv"))

Pivot wider while summarizing

dfstrat <- read_csv(here::here("data", "dfstrat.csv"))
dfstrat

# A tibble: 1,000 × 5
   stratum sex   race  educ  income
     <dbl> <chr> <chr> <chr>  <dbl>
 1       6 F     W     HS      83.7
 2       5 F     W     BA     128. 
 3       3 F     B     HS      66.3
 4       3 F     W     HS     111. 
 5       6 M     W     BA     116. 
 6       7 M     B     HS     159. 
 7       8 M     W     BA     131. 
 8       3 M     W     BA      94.4
 9       7 F     B     HS     146. 
10       2 F     W     BA      88.8
# ℹ 990 more rows

Pivot wider while summarizing

dfstrat <- read_csv(here::here("data", "dfstrat.csv"))
dfstrat |>
    group_by(sex, race, stratum, educ)

# A tibble: 1,000 × 5
# Groups:   sex, race, stratum, educ [64]
   stratum sex   race  educ  income
     <dbl> <chr> <chr> <chr>  <dbl>
 1       6 F     W     HS      83.7
 2       5 F     W     BA     128. 
 3       3 F     B     HS      66.3
 4       3 F     W     HS     111. 
 5       6 M     W     BA     116. 
 6       7 M     B     HS     159. 
 7       8 M     W     BA     131. 
 8       3 M     W     BA      94.4
 9       7 F     B     HS     146. 
10       2 F     W     BA      88.8
# ℹ 990 more rows

Pivot wider while summarizing

dfstrat <- read_csv(here::here("data", "dfstrat.csv"))
dfstrat |>
    group_by(sex, race, stratum, educ) |>
    summarize(mean_inc = mean(income),
              n = n())

# A tibble: 64 × 6
# Groups:   sex, race, stratum [32]
   sex   race  stratum educ  mean_inc     n
   <chr> <chr>   <dbl> <chr>    <dbl> <int>
 1 F     B           1 BA        93.8    19
 2 F     B           1 HS        99.3     6
 3 F     B           2 BA        89.7    11
 4 F     B           2 HS        93.0    16
 5 F     B           3 BA       112.     13
 6 F     B           3 HS        95.0    16
 7 F     B           4 BA       108.     14
 8 F     B           4 HS        96.1    15
 9 F     B           5 BA        91.0    11
10 F     B           5 HS        92.6    15
# ℹ 54 more rows

Pivot wider while summarizing

dfstrat <- read_csv(here::here("data", "dfstrat.csv"))
dfstrat |>
    group_by(sex, race, stratum, educ) |>
    summarize(mean_inc = mean(income),
              n = n()) |>
    pivot_wider(names_from = (educ),
                values_from = c(mean_inc, n))

# A tibble: 32 × 7
# Groups:   sex, race, stratum [32]
   sex   race  stratum mean_inc_BA mean_inc_HS  n_BA  n_HS
   <chr> <chr>   <dbl>       <dbl>       <dbl> <int> <int>
 1 F     B           1        93.8        99.3    19     6
 2 F     B           2        89.7        93.0    11    16
 3 F     B           3       112.         95.0    13    16
 4 F     B           4       108.         96.1    14    15
 5 F     B           5        91.0        92.6    11    15
 6 F     B           6        93.0       116.     15    15
 7 F     B           7       102.        121.     13    13
 8 F     B           8       105.         88.3    14     8
 9 F     W           1        92.6       110.     19    13
10 F     W           2        98.5       101.     15    19
# ℹ 22 more rows
…
