Data Wrangling with R and the Tidyverse – Regular Expressions
…
The regex engine or “flavor” used by stringr is Perl- or PCRE2-like.

Regexps in practice

Example: Politics and Placenames

library(ukelection2019)

Example: Politics and Placenames

library(ukelection2019)

ukvote2019

# A tibble: 3,320 × 13
   cid     constituency electorate party_name candidate votes vote_share_percent
   <chr>   <chr>             <int> <chr>      <chr>     <int>              <dbl>
 1 W07000… Aberavon          50747 Labour     Stephen … 17008               53.8
 2 W07000… Aberavon          50747 Conservat… Charlott…  6518               20.6
 3 W07000… Aberavon          50747 The Brexi… Glenda D…  3108                9.8
 4 W07000… Aberavon          50747 Plaid Cym… Nigel Hu…  2711                8.6
 5 W07000… Aberavon          50747 Liberal D… Sheila K…  1072                3.4
 6 W07000… Aberavon          50747 Independe… Captain …   731                2.3
 7 W07000… Aberavon          50747 Green      Giorgia …   450                1.4
 8 W07000… Aberconwy         44699 Conservat… Robin Mi… 14687               46.1
 9 W07000… Aberconwy         44699 Labour     Emily Ow… 12653               39.7
10 W07000… Aberconwy         44699 Plaid Cym… Lisa Goo…  2704                8.5
# ℹ 3,310 more rows
# ℹ 6 more variables: vote_share_change <dbl>, total_votes_cast <int>,
#   vrank <int>, turnout <dbl>, fname <chr>, lname <chr>

Example: Politics and Placenames

library(ukelection2019)

ukvote2019 |>
  group_by(constituency)

# A tibble: 3,320 × 13
# Groups:   constituency [650]
   cid     constituency electorate party_name candidate votes vote_share_percent
   <chr>   <chr>             <int> <chr>      <chr>     <int>              <dbl>
 1 W07000… Aberavon          50747 Labour     Stephen … 17008               53.8
 2 W07000… Aberavon          50747 Conservat… Charlott…  6518               20.6
 3 W07000… Aberavon          50747 The Brexi… Glenda D…  3108                9.8
 4 W07000… Aberavon          50747 Plaid Cym… Nigel Hu…  2711                8.6
 5 W07000… Aberavon          50747 Liberal D… Sheila K…  1072                3.4
 6 W07000… Aberavon          50747 Independe… Captain …   731                2.3
 7 W07000… Aberavon          50747 Green      Giorgia …   450                1.4
 8 W07000… Aberconwy         44699 Conservat… Robin Mi… 14687               46.1
 9 W07000… Aberconwy         44699 Labour     Emily Ow… 12653               39.7
10 W07000… Aberconwy         44699 Plaid Cym… Lisa Goo…  2704                8.5
# ℹ 3,310 more rows
# ℹ 6 more variables: vote_share_change <dbl>, total_votes_cast <int>,
#   vrank <int>, turnout <dbl>, fname <chr>, lname <chr>

Example: Politics and Placenames

library(ukelection2019)

ukvote2019 |>
  group_by(constituency) |>
  slice_max(votes)

# A tibble: 650 × 13
# Groups:   constituency [650]
   cid     constituency electorate party_name candidate votes vote_share_percent
   <chr>   <chr>             <int> <chr>      <chr>     <int>              <dbl>
 1 W07000… Aberavon          50747 Labour     Stephen … 17008               53.8
 2 W07000… Aberconwy         44699 Conservat… Robin Mi… 14687               46.1
 3 S14000… Aberdeen No…      62489 Scottish … Kirsty B… 20205               54  
 4 S14000… Aberdeen So…      65719 Scottish … Stephen … 20388               44.7
 5 S14000… Aberdeenshi…      72640 Conservat… Andrew B… 22752               42.7
 6 S14000… Airdrie & S…      64008 Scottish … Neil Gray 17929               45.1
 7 E14000… Aldershot         72617 Conservat… Leo Doch… 27980               58.4
 8 E14000… Aldridge-Br…      60138 Conservat… Wendy Mo… 27850               70.8
 9 E14000… Altrincham …      73096 Conservat… Graham B… 26311               48  
10 W07000… Alyn & Dees…      62783 Labour     Mark Tami 18271               42.5
# ℹ 640 more rows
# ℹ 6 more variables: vote_share_change <dbl>, total_votes_cast <int>,
#   vrank <int>, turnout <dbl>, fname <chr>, lname <chr>

Example: Politics and Placenames

library(ukelection2019)

ukvote2019 |>
  group_by(constituency) |>
  slice_max(votes) |>
  ungroup()

# A tibble: 650 × 13
   cid     constituency electorate party_name candidate votes vote_share_percent
   <chr>   <chr>             <int> <chr>      <chr>     <int>              <dbl>
 1 W07000… Aberavon          50747 Labour     Stephen … 17008               53.8
 2 W07000… Aberconwy         44699 Conservat… Robin Mi… 14687               46.1
 3 S14000… Aberdeen No…      62489 Scottish … Kirsty B… 20205               54  
 4 S14000… Aberdeen So…      65719 Scottish … Stephen … 20388               44.7
 5 S14000… Aberdeenshi…      72640 Conservat… Andrew B… 22752               42.7
 6 S14000… Airdrie & S…      64008 Scottish … Neil Gray 17929               45.1
 7 E14000… Aldershot         72617 Conservat… Leo Doch… 27980               58.4
 8 E14000… Aldridge-Br…      60138 Conservat… Wendy Mo… 27850               70.8
 9 E14000… Altrincham …      73096 Conservat… Graham B… 26311               48  
10 W07000… Alyn & Dees…      62783 Labour     Mark Tami 18271               42.5
# ℹ 640 more rows
# ℹ 6 more variables: vote_share_change <dbl>, total_votes_cast <int>,
#   vrank <int>, turnout <dbl>, fname <chr>, lname <chr>

Example: Politics and Placenames

library(ukelection2019)

ukvote2019 |>
  group_by(constituency) |>
  slice_max(votes) |>
  ungroup() |>
  select(constituency, party_name)

# A tibble: 650 × 2
   constituency                    party_name             
   <chr>                           <chr>                  
 1 Aberavon                        Labour                 
 2 Aberconwy                       Conservative           
 3 Aberdeen North                  Scottish National Party
 4 Aberdeen South                  Scottish National Party
 5 Aberdeenshire West & Kincardine Conservative           
 6 Airdrie & Shotts                Scottish National Party
 7 Aldershot                       Conservative           
 8 Aldridge-Brownhills             Conservative           
 9 Altrincham & Sale West          Conservative           
10 Alyn & Deeside                  Labour                 
# ℹ 640 more rows
…
  select(constituency, party_name) |>
  mutate(shire = str_detect(constituency, "shire"),
         field = str_detect(constituency, "field"),
         dale = str_detect(constituency, "dale"),
         pool = str_detect(constituency, "pool"),
         ton = str_detect(constituency, "(ton$)|(ton )"),
         wood = str_detect(constituency, "(wood$)|(wood )"),
         saint = str_detect(constituency, "(St )|(Saint)"),
         port = str_detect(constituency, "(Port)|(port)"),
         ford = str_detect(constituency, "(ford$)|(ford )"),
         by = str_detect(constituency, "(by$)|(by )"),
         boro = str_detect(constituency, "(boro$)|(boro )|(borough$)|(borough )"),
         ley = str_detect(constituency, "(ley$)|(ley )|(leigh$)|(leigh )"))

# A tibble: 650 × 14
   constituency party_name shire field dale  pool  ton   wood  saint port  ford 
   <chr>        <chr>      <lgl> <lgl> <lgl> <lgl> <lgl> <lgl> <lgl> <lgl> <lgl>
 1 Aberavon     Labour     FALSE FALSE FALSE FALSE FALSE FALSE FALSE FALSE FALSE
 2 Aberconwy    Conservat… FALSE FALSE FALSE FALSE FALSE FALSE FALSE FALSE FALSE
 3 Aberdeen No… Scottish … FALSE FALSE FALSE FALSE FALSE FALSE FALSE FALSE FALSE
 4 Aberdeen So… Scottish … FALSE FALSE FALSE FALSE FALSE FALSE FALSE FALSE FALSE
 5 Aberdeenshi… Conservat… TRUE  FALSE FALSE FALSE FALSE FALSE FALSE FALSE FALSE
 6 Airdrie & S… Scottish … FALSE FALSE FALSE FALSE FALSE FALSE FALSE FALSE FALSE
 7 Aldershot    Conservat… FALSE FALSE FALSE FALSE FALSE FALSE FALSE FALSE FALSE
 8 Aldridge-Br… Conservat… FALSE FALSE FALSE FALSE FALSE FALSE FALSE FALSE FALSE
 9 Altrincham … Conservat… FALSE FALSE FALSE FALSE FALSE FALSE FALSE FALSE FALSE
10 Alyn & Dees… Labour     FALSE FALSE FALSE FALSE FALSE FALSE FALSE FALSE FALSE
# ℹ 640 more rows
# ℹ 3 more variables: by <lgl>, boro <lgl>, ley <lgl>
…
  mutate(shire = str_detect(constituency, "shire"),
         field = str_detect(constituency, "field"),
         dale = str_detect(constituency, "dale"),
         pool = str_detect(constituency, "pool"),
         ton = str_detect(constituency, "(ton$)|(ton )"),
         wood = str_detect(constituency, "(wood$)|(wood )"),
         saint = str_detect(constituency, "(St )|(Saint)"),
         port = str_detect(constituency, "(Port)|(port)"),
         ford = str_detect(constituency, "(ford$)|(ford )"),
         by = str_detect(constituency, "(by$)|(by )"),
         boro = str_detect(constituency, "(boro$)|(boro )|(borough$)|(borough )"),
         ley = str_detect(constituency, "(ley$)|(ley )|(leigh$)|(leigh )")) |>
  pivot_longer(shire:ley, names_to = "toponym")

# A tibble: 7,800 × 4
   constituency party_name toponym value
   <chr>        <chr>      <chr>   <lgl>
 1 Aberavon     Labour     shire   FALSE
 2 Aberavon     Labour     field   FALSE
 3 Aberavon     Labour     dale    FALSE
 4 Aberavon     Labour     pool    FALSE
 5 Aberavon     Labour     ton     FALSE
 6 Aberavon     Labour     wood    FALSE
 7 Aberavon     Labour     saint   FALSE
 8 Aberavon     Labour     port    FALSE
 9 Aberavon     Labour     ford    FALSE
10 Aberavon     Labour     by      FALSE
# ℹ 7,790 more rows
…
Example: Politics and Placenames

place_tab

# A tibble: 7,800 × 4
   constituency party_name toponym value
   <chr>        <chr>      <chr>   <lgl>
 1 Aberavon     Labour     shire   FALSE
 2 Aberavon     Labour     field   FALSE
 3 Aberavon     Labour     dale    FALSE
 4 Aberavon     Labour     pool    FALSE
 5 Aberavon     Labour     ton     FALSE
 6 Aberavon     Labour     wood    FALSE
 7 Aberavon     Labour     saint   FALSE
 8 Aberavon     Labour     port    FALSE
 9 Aberavon     Labour     ford    FALSE
10 Aberavon     Labour     by      FALSE
# ℹ 7,790 more rows

Example: Politics and Placenames

place_tab |>
  group_by(party_name, toponym)

# A tibble: 7,800 × 4
# Groups:   party_name, toponym [120]
   constituency party_name toponym value
   <chr>        <chr>      <chr>   <lgl>
 1 Aberavon     Labour     shire   FALSE
 2 Aberavon     Labour     field   FALSE
 3 Aberavon     Labour     dale    FALSE
 4 Aberavon     Labour     pool    FALSE
 5 Aberavon     Labour     ton     FALSE
 6 Aberavon     Labour     wood    FALSE
 7 Aberavon     Labour     saint   FALSE
 8 Aberavon     Labour     port    FALSE
 9 Aberavon     Labour     ford    FALSE
10 Aberavon     Labour     by      FALSE
# ℹ 7,790 more rows

Example: Politics and Placenames

place_tab |>
  group_by(party_name, toponym) |>
  filter(party_name %in% c("Conservative", "Labour"))

# A tibble: 6,816 × 4
# Groups:   party_name, toponym [24]
   constituency party_name toponym value
   <chr>        <chr>      <chr>   <lgl>
 1 Aberavon     Labour     shire   FALSE
 2 Aberavon     Labour     field   FALSE
 3 Aberavon     Labour     dale    FALSE
 4 Aberavon     Labour     pool    FALSE
 5 Aberavon     Labour     ton     FALSE
 6 Aberavon     Labour     wood    FALSE
 7 Aberavon     Labour     saint   FALSE
 8 Aberavon     Labour     port    FALSE
 9 Aberavon     Labour     ford    FALSE
10 Aberavon     Labour     by      FALSE
# ℹ 6,806 more rows

Example: Politics and Placenames

place_tab |>
  group_by(party_name, toponym) |>
  filter(party_name %in% c("Conservative", "Labour")) |>
  group_by(toponym, party_name)

# A tibble: 6,816 × 4
# Groups:   toponym, party_name [24]
   constituency party_name toponym value
   <chr>        <chr>      <chr>   <lgl>
 1 Aberavon     Labour     shire   FALSE
 2 Aberavon     Labour     field   FALSE
 3 Aberavon     Labour     dale    FALSE
 4 Aberavon     Labour     pool    FALSE
 5 Aberavon     Labour     ton     FALSE
 6 Aberavon     Labour     wood    FALSE
 7 Aberavon     Labour     saint   FALSE
 8 Aberavon     Labour     port    FALSE
 9 Aberavon     Labour     ford    FALSE
10 Aberavon     Labour     by      FALSE
# ℹ 6,806 more rows

Example: Politics and Placenames

place_tab |>
  group_by(party_name, toponym) |>
  filter(party_name %in% c("Conservative", "Labour")) |>
  group_by(toponym, party_name) |>
  summarize(freq = sum(value))

# A tibble: 24 × 3
# Groups:   toponym [12]
   toponym party_name    freq
   <chr>   <chr>        <int>
 1 boro    Conservative     7
 2 boro    Labour           1
 3 by      Conservative     6
 4 by      Labour           2
 5 dale    Conservative     3
 6 dale    Labour           1
 7 field   Conservative    10
 8 field   Labour          10
 9 ford    Conservative    17
10 ford    Labour          12
# ℹ 14 more rows

Example: Politics and Placenames

place_tab |>
  group_by(party_name, toponym) |>
  filter(party_name %in% c("Conservative", "Labour")) |>
  group_by(toponym, party_name) |>
  summarize(freq = sum(value)) |>
  mutate(pct = freq/sum(freq))

# A tibble: 24 × 4
# Groups:   toponym [12]
   toponym party_name    freq   pct
   <chr>   <chr>        <int> <dbl>
 1 boro    Conservative     7 0.875
 2 boro    Labour           1 0.125
 3 by      Conservative     6 0.75 
 4 by      Labour           2 0.25 
 5 dale    Conservative     3 0.75 
 6 dale    Labour           1 0.25 
 7 field   Conservative    10 0.5  
 8 field   Labour          10 0.5  
 9 ford    Conservative    17 0.586
10 ford    Labour          12 0.414
# ℹ 14 more rows
…
