Data Wrangling with R and the Tidyverse – Reading in Data
…
I want to load files from the data folder, but I also want you to be able to load them. I’m writing this from somewhere deep in the slides folder, but you won’t be there. Also, I’m on a Mac, but you may not be.

Where’s the data? Using here()

So:

## Load the file relative to the path from the top of the project, without separators, etc
organs <- read_csv(file = here("data", "organdonation.csv"))

organs

# A tibble: 238 × 21
   country  year donors   pop pop.dens   gdp gdp.lag health health.lag pubhealth
   <chr>   <dbl>  <dbl> <dbl>    <dbl> <dbl>   <dbl>  <dbl>      <dbl>     <dbl>
 1 Austra…    NA  NA    17065    0.220 16774   16591   1300       1224       4.8
 2 Austra…  1991  12.1  17284    0.223 17171   16774   1379       1300       5.4
 3 Austra…  1992  12.4  17495    0.226 17914   17171   1455       1379       5.4
 4 Austra…  1993  12.5  17667    0.228 18883   17914   1540       1455       5.4
 5 Austra…  1994  10.2  17855    0.231 19849   18883   1626       1540       5.4
 6 Austra…  1995  10.2  18072    0.233 21079   19849   1737       1626       5.5
 7 Austra…  1996  10.6  18311    0.237 21923   21079   1846       1737       5.6
 8 Austra…  1997  10.3  18518    0.239 22961   21923   1948       1846       5.7
 9 Austra…  1998  10.5  18711    0.242 24148   22961   2077       1948       5.9
10 Austra…  1999   8.67 18926    0.244 25445   24148   2231       2077       6.1
# ℹ 228 more rows
# ℹ 11 more variables: roads <dbl>, cerebvas <dbl>, assault <dbl>,
#   external <dbl>, txp.pop <dbl>, world <chr>, opt <chr>, consent.law <chr>,
#   consent.practice <chr>, consistent <chr>, ccode <chr>
…
read_table() Data that’s separated by one (or more) columns of space.

You can read files remotely, too

You can give all of these functions local files, or they can point to URLs.

Compressed files will be automatically uncompressed.

(Be careful what you download from remote locations!)

organ_remote <- read_csv("http://kjhealy.co/organdonation.csv")

organ_remote

# A tibble: 238 × 21
   country  year donors   pop pop.dens   gdp gdp.lag health health.lag pubhealth
   <chr>   <dbl>  <dbl> <dbl>    <dbl> <dbl>   <dbl>  <dbl>      <dbl>     <dbl>
 1 Austra…    NA  NA    17065    0.220 16774   16591   1300       1224       4.8
 2 Austra…  1991  12.1  17284    0.223 17171   16774   1379       1300       5.4
 3 Austra…  1992  12.4  17495    0.226 17914   17171   1455       1379       5.4
 4 Austra…  1993  12.5  17667    0.228 18883   17914   1540       1455       5.4
 5 Austra…  1994  10.2  17855    0.231 19849   18883   1626       1540       5.4
 6 Austra…  1995  10.2  18072    0.233 21079   19849   1737       1626       5.5
 7 Austra…  1996  10.6  18311    0.237 21923   21079   1846       1737       5.6
 8 Austra…  1997  10.3  18518    0.239 22961   21923   1948       1846       5.7
 9 Austra…  1998  10.5  18711    0.242 24148   22961   2077       1948       5.9
10 Austra…  1999   8.67 18926    0.244 25445   24148   2231       2077       6.1
# ℹ 228 more rows
# ℹ 11 more variables: roads <dbl>, cerebvas <dbl>, assault <dbl>,
#   external <dbl>, txp.pop <dbl>, world <chr>, opt <chr>, consent.law <chr>,
#   consent.practice <chr>, consistent <chr>, ccode <chr>
…
engmort <- read_table(here("data", "mortality.txt"), 
                      skip = 2, na = ".")

engmort

# A tibble: 222 × 5
    Year Age    Female    Male   Total
   <dbl> <chr>   <dbl>   <dbl>   <dbl>
 1  1841 0     0.136   0.169   0.153  
 2  1841 1     0.0596  0.0632  0.0614 
 3  1841 2     0.0364  0.0370  0.0367 
 4  1841 3     0.0249  0.0261  0.0255 
 5  1841 4     0.0185  0.0191  0.0188 
 6  1841 5     0.0140  0.0143  0.0141 
 7  1841 6     0.0109  0.0112  0.0110 
 8  1841 7     0.00859 0.00898 0.00879
 9  1841 8     0.00686 0.00725 0.00705
10  1841 9     0.00577 0.00605 0.00591
# ℹ 212 more rows
…
The column specification tells you what the read function did. That is, how it interpreted each of the columns. It will also report if things don’t go as expected.

Why is age imported in character format?

Attend to the column specification

Absent you giving them a column specification, the read_ functions try to guess what the type of each column is. They do this by looking at the first thousand rows of each column. They may guess incorrectly!

Normalizing names and recoding

read_table(here("data", "mortality.txt"),
           skip = 2, na = ".")

# A tibble: 222 × 5
    Year Age    Female    Male   Total
   <dbl> <chr>   <dbl>   <dbl>   <dbl>
 1  1841 0     0.136   0.169   0.153  
 2  1841 1     0.0596  0.0632  0.0614 
 3  1841 2     0.0364  0.0370  0.0367 
 4  1841 3     0.0249  0.0261  0.0255 
 5  1841 4     0.0185  0.0191  0.0188 
 6  1841 5     0.0140  0.0143  0.0141 
 7  1841 6     0.0109  0.0112  0.0110 
 8  1841 7     0.00859 0.00898 0.00879
 9  1841 8     0.00686 0.00725 0.00705
10  1841 9     0.00577 0.00605 0.00591
# ℹ 212 more rows

Normalizing names and recoding

read_table(here("data", "mortality.txt"),
           skip = 2, na = ".") |>
  janitor::clean_names()

# A tibble: 222 × 5
    year age    female    male   total
   <dbl> <chr>   <dbl>   <dbl>   <dbl>
 1  1841 0     0.136   0.169   0.153  
 2  1841 1     0.0596  0.0632  0.0614 
 3  1841 2     0.0364  0.0370  0.0367 
 4  1841 3     0.0249  0.0261  0.0255 
 5  1841 4     0.0185  0.0191  0.0188 
 6  1841 5     0.0140  0.0143  0.0141 
 7  1841 6     0.0109  0.0112  0.0110 
 8  1841 7     0.00859 0.00898 0.00879
 9  1841 8     0.00686 0.00725 0.00705
10  1841 9     0.00577 0.00605 0.00591
# ℹ 212 more rows

Normalizing names and recoding

read_table(here("data", "mortality.txt"),
           skip = 2, na = ".") |>
  janitor::clean_names() |>
  mutate(age  = case_match(age,
                           "110+" ~ "110",
                           .default = age),
         age = as.integer(age))

# A tibble: 222 × 5
    year   age  female    male   total
   <dbl> <int>   <dbl>   <dbl>   <dbl>
 1  1841     0 0.136   0.169   0.153  
 2  1841     1 0.0596  0.0632  0.0614 
 3  1841     2 0.0364  0.0370  0.0367 
 4  1841     3 0.0249  0.0261  0.0255 
 5  1841     4 0.0185  0.0191  0.0188 
 6  1841     5 0.0140  0.0143  0.0141 
 7  1841     6 0.0109  0.0112  0.0110 
 8  1841     7 0.00859 0.00898 0.00879
 9  1841     8 0.00686 0.00725 0.00705
10  1841     9 0.00577 0.00605 0.00591
# ℹ 212 more rows
…
Warning: 88128 parsing failures.
 row  col           expected actual                                                                         file
2755 Year 1/0/T/F/TRUE/FALSE   2020 '/Users/kjhealy/Documents/courses/data_wrangling/data/SAS_on_2021-04-13.csv'
2756 Year 1/0/T/F/TRUE/FALSE   2020 '/Users/kjhealy/Documents/courses/data_wrangling/data/SAS_on_2021-04-13.csv'
2757 Year 1/0/T/F/TRUE/FALSE   2020 '/Users/kjhealy/Documents/courses/data_wrangling/data/SAS_on_2021-04-13.csv'
2758 Year 1/0/T/F/TRUE/FALSE   2020 '/Users/kjhealy/Documents/courses/data_wrangling/data/SAS_on_2021-04-13.csv'
2759 Year 1/0/T/F/TRUE/FALSE   2020 '/Users/kjhealy/Documents/courses/data_wrangling/data/SAS_on_2021-04-13.csv'
.... .... .................. ...... ............................................................................
See problems(...) for more details.

Let’s try to load it

problems(nchs)

# A tibble: 88,128 × 5
     row col   expected           actual file                                   
   <int> <chr> <chr>              <chr>  <chr>                                  
 1  2755 Year  1/0/T/F/TRUE/FALSE 2020   '/Users/kjhealy/Documents/courses/data…
 2  2756 Year  1/0/T/F/TRUE/FALSE 2020   '/Users/kjhealy/Documents/courses/data…
 3  2757 Year  1/0/T/F/TRUE/FALSE 2020   '/Users/kjhealy/Documents/courses/data…
 4  2758 Year  1/0/T/F/TRUE/FALSE 2020   '/Users/kjhealy/Documents/courses/data…
 5  2759 Year  1/0/T/F/TRUE/FALSE 2020   '/Users/kjhealy/Documents/courses/data…
 6  2760 Year  1/0/T/F/TRUE/FALSE 2020   '/Users/kjhealy/Documents/courses/data…
 7  2761 Year  1/0/T/F/TRUE/FALSE 2020   '/Users/kjhealy/Documents/courses/data…
 8  2762 Year  1/0/T/F/TRUE/FALSE 2020   '/Users/kjhealy/Documents/courses/data…
 9  2763 Year  1/0/T/F/TRUE/FALSE 2020   '/Users/kjhealy/Documents/courses/data…
10  2764 Year  1/0/T/F/TRUE/FALSE 2020   '/Users/kjhealy/Documents/courses/data…
# ℹ 88,118 more rows

Let’s try to load it

problems(nchs)

# A tibble: 88,128 × 5
     row col   expected           actual file                                   
   <int> <chr> <chr>              <chr>  <chr>                                  
 1  2755 Year  1/0/T/F/TRUE/FALSE 2020   '/Users/kjhealy/Documents/courses/data…
 2  2756 Year  1/0/T/F/TRUE/FALSE 2020   '/Users/kjhealy/Documents/courses/data…
 3  2757 Year  1/0/T/F/TRUE/FALSE 2020   '/Users/kjhealy/Documents/courses/data…
 4  2758 Year  1/0/T/F/TRUE/FALSE 2020   '/Users/kjhealy/Documents/courses/data…
 5  2759 Year  1/0/T/F/TRUE/FALSE 2020   '/Users/kjhealy/Documents/courses/data…
 6  2760 Year  1/0/T/F/TRUE/FALSE 2020   '/Users/kjhealy/Documents/courses/data…
 7  2761 Year  1/0/T/F/TRUE/FALSE 2020   '/Users/kjhealy/Documents/courses/data…
 8  2762 Year  1/0/T/F/TRUE/FALSE 2020   '/Users/kjhealy/Documents/courses/data…
 9  2763 Year  1/0/T/F/TRUE/FALSE 2020   '/Users/kjhealy/Documents/courses/data…
10  2764 Year  1/0/T/F/TRUE/FALSE 2020   '/Users/kjhealy/Documents/courses/data…
# ℹ 88,118 more rows
…
Hm, something to do with the transition to national numbers maybe?

Take a look with select() & filter()

nchs |> 
  select(Year, Month, State) |> 
  filter(State == "New York")

# A tibble: 969 × 3
   Year  Month State   
   <lgl> <lgl> <chr>   
 1 NA    NA    New York
 2 NA    NA    New York
 3 NA    NA    New York
 4 NA    NA    New York
 5 NA    NA    New York
 6 NA    NA    New York
 7 NA    NA    New York
 8 NA    NA    New York
 9 NA    NA    New York
10 NA    NA    New York
# ℹ 959 more rows
…
Now let’s look again

dim(nchs)

[1] 52326    15

nchs |> 
  select(year, month, state) |> 
  filter(!is.na(year)) 

# A tibble: 49,572 × 3
   year  month state        
   <chr> <chr> <chr>        
 1 2020  <NA>  United States
 2 2020  <NA>  United States
 3 2020  <NA>  United States
 4 2020  <NA>  United States
 5 2020  <NA>  United States
 6 2020  <NA>  United States
 7 2020  <NA>  United States
 8 2020  <NA>  United States
 9 2020  <NA>  United States
10 2020  <NA>  United States
# ℹ 49,562 more rows
…
read_lines() lets you get the file in a nearly unprocessed form.

The colspec output is your friend.

If we wanted to …

library(stringr)  # it's back!

If we wanted to …

library(stringr)  # it's back!

nchs

# A tibble: 52,326 × 15
   data_as_of start_date end_date   group    year  month state   sex   age_group
   <date>     <date>     <date>     <chr>    <chr> <chr> <chr>   <chr> <chr>    
 1 2021-04-07 2020-01-01 2021-04-03 By Total <NA>  <NA>  United… All … All ages 
 2 2021-04-07 2020-01-01 2021-04-03 By Total <NA>  <NA>  United… All … Under 1 …
 3 2021-04-07 2020-01-01 2021-04-03 By Total <NA>  <NA>  United… All … 0-17 yea…
 4 2021-04-07 2020-01-01 2021-04-03 By Total <NA>  <NA>  United… All … 1-4 years
 5 2021-04-07 2020-01-01 2021-04-03 By Total <NA>  <NA>  United… All … 5-14 yea…
 6 2021-04-07 2020-01-01 2021-04-03 By Total <NA>  <NA>  United… All … 15-24 ye…
 7 2021-04-07 2020-01-01 2021-04-03 By Total <NA>  <NA>  United… All … 18-29 ye…
 8 2021-04-07 2020-01-01 2021-04-03 By Total <NA>  <NA>  United… All … 25-34 ye…
 9 2021-04-07 2020-01-01 2021-04-03 By Total <NA>  <NA>  United… All … 30-39 ye…
10 2021-04-07 2020-01-01 2021-04-03 By Total <NA>  <NA>  United… All … 35-44 ye…
# ℹ 52,316 more rows
# ℹ 6 more variables: covid_19_deaths <int>, total_deaths <int>,
#   pneumonia_deaths <int>, pneumonia_and_covid_19_deaths <int>,
#   influenza_deaths <int>, pneumonia_influenza_or_covid_19_deaths <int>

If we wanted to …

library(stringr)  # it's back!

nchs |>
  select(!(c(data_as_of:end_date, year, month)))

# A tibble: 52,326 × 10
   group    state  sex   age_group covid_19_deaths total_deaths pneumonia_deaths
   <chr>    <chr>  <chr> <chr>               <int>        <int>            <int>
 1 By Total Unite… All … All ages           539723      4161167           466437
 2 By Total Unite… All … Under 1 …              59        22626              246
 3 By Total Unite… All … 0-17 yea…             251        39620              667
 4 By Total Unite… All … 1-4 years              31         4069              137
 5 By Total Unite… All … 5-14 yea…              89         6578              195
 6 By Total Unite… All … 15-24 ye…             804        42596              930
 7 By Total Unite… All … 18-29 ye…            1996        75339             2184
 8 By Total Unite… All … 25-34 ye…            3543        88196             3493
 9 By Total Unite… All … 30-39 ye…            5792       107348             5276
10 By Total Unite… All … 35-44 ye…            9259       126848             8203
# ℹ 52,316 more rows
# ℹ 3 more variables: pneumonia_and_covid_19_deaths <int>,
#   influenza_deaths <int>, pneumonia_influenza_or_covid_19_deaths <int>

If we wanted to …

library(stringr)  # it's back!

nchs |>
  select(!(c(data_as_of:end_date, year, month))) |>
  pivot_longer(covid_19_deaths:pneumonia_influenza_or_covid_19_deaths,
               names_to = "outcome",
               values_to = "n")

# A tibble: 313,956 × 6
   group    state         sex       age_group    outcome                       n
   <chr>    <chr>         <chr>     <chr>        <chr>                     <int>
 1 By Total United States All Sexes All ages     covid_19_deaths          5.40e5
 2 By Total United States All Sexes All ages     total_deaths             4.16e6
 3 By Total United States All Sexes All ages     pneumonia_deaths         4.66e5
 4 By Total United States All Sexes All ages     pneumonia_and_covid_19_… 2.63e5
 5 By Total United States All Sexes All ages     influenza_deaths         9.04e3
 6 By Total United States All Sexes All ages     pneumonia_influenza_or_… 7.51e5
 7 By Total United States All Sexes Under 1 year covid_19_deaths          5.9 e1
 8 By Total United States All Sexes Under 1 year total_deaths             2.26e4
 9 By Total United States All Sexes Under 1 year pneumonia_deaths         2.46e2
10 By Total United States All Sexes Under 1 year pneumonia_and_covid_19_… 1   e1
# ℹ 313,946 more rows

If we wanted to …

library(stringr)  # it's back!

nchs |>
  select(!(c(data_as_of:end_date, year, month))) |>
  pivot_longer(covid_19_deaths:pneumonia_influenza_or_covid_19_deaths,
               names_to = "outcome",
               values_to = "n") |>
  mutate(outcome = str_to_sentence(outcome),
         outcome = str_replace_all(outcome, "_", " "),
         outcome = str_replace(outcome, "(C|c)ovid 19", "COVID-19"))

# A tibble: 313,956 × 6
   group    state         sex       age_group    outcome                       n
   <chr>    <chr>         <chr>     <chr>        <chr>                     <int>
 1 By Total United States All Sexes All ages     COVID-19 deaths          5.40e5
 2 By Total United States All Sexes All ages     Total deaths             4.16e6
 3 By Total United States All Sexes All ages     Pneumonia deaths         4.66e5
 4 By Total United States All Sexes All ages     Pneumonia and COVID-19 … 2.63e5
 5 By Total United States All Sexes All ages     Influenza deaths         9.04e3
 6 By Total United States All Sexes All ages     Pneumonia influenza or … 7.51e5
 7 By Total United States All Sexes Under 1 year COVID-19 deaths          5.9 e1
 8 By Total United States All Sexes Under 1 year Total deaths             2.26e4
 9 By Total United States All Sexes Under 1 year Pneumonia deaths         2.46e2
10 By Total United States All Sexes Under 1 year Pneumonia and COVID-19 … 1   e1
# ℹ 313,946 more rows

If we wanted to …

Put this in an object called nchs_fmt

… we could make a table or graph

nchs_fmt |> 
  select(state, age_group, outcome, n)

# A tibble: 313,956 × 4
   state         age_group    outcome                                      n
   <chr>         <chr>        <chr>                                    <int>
 1 United States All ages     COVID-19 deaths                         539723
 2 United States All ages     Total deaths                           4161167
 3 United States All ages     Pneumonia deaths                        466437
 4 United States All ages     Pneumonia and COVID-19 deaths           263147
 5 United States All ages     Influenza deaths                          9037
 6 United States All ages     Pneumonia influenza or COVID-19 deaths  750804
 7 United States Under 1 year COVID-19 deaths                             59
 8 United States Under 1 year Total deaths                             22626
 9 United States Under 1 year Pneumonia deaths                           246
10 United States Under 1 year Pneumonia and COVID-19 deaths               10
# ℹ 313,946 more rows
…
Cleaning a table

read_csv(here("data", "rfm_table.csv"))

# A tibble: 23 × 5
   SEGMENT            DESCRIPTION                              R     F     M    
   <chr>              <chr>                                    <chr> <chr> <chr>
 1 <NA>               <NA>                                     <NA>  <NA>  <NA> 
 2 Champions          Bought recently, buy often and spend th… 4– 5  4– 5  4– 5 
 3 <NA>               <NA>                                     <NA>  <NA>  <NA> 
 4 Loyal Customers    Spend good money. Responsive to promoti… 2– 5  3– 5  3– 5 
 5 <NA>               <NA>                                     <NA>  <NA>  <NA> 
 6 Potential Loyalist Recent customers, spent good amount, bo… 3– 5  1– 3  1– 3 
 7 <NA>               <NA>                                     <NA>  <NA>  <NA> 
 8 New Customers      Bought more recently, but not often      4– 5  <= 1  <= 1 
 9 <NA>               <NA>                                     <NA>  <NA>  <NA> 
10 Promising          Recent shoppers, but haven’t spent much  3– 4  <= 1  <= 1 
# ℹ 13 more rows

Cleaning a table

read_csv(here("data", "rfm_table.csv")) |>
  janitor::clean_names()

# A tibble: 23 × 5
   segment            description                              r     f     m    
   <chr>              <chr>                                    <chr> <chr> <chr>
 1 <NA>               <NA>                                     <NA>  <NA>  <NA> 
 2 Champions          Bought recently, buy often and spend th… 4– 5  4– 5  4– 5 
 3 <NA>               <NA>                                     <NA>  <NA>  <NA> 
 4 Loyal Customers    Spend good money. Responsive to promoti… 2– 5  3– 5  3– 5 
 5 <NA>               <NA>                                     <NA>  <NA>  <NA> 
 6 Potential Loyalist Recent customers, spent good amount, bo… 3– 5  1– 3  1– 3 
 7 <NA>               <NA>                                     <NA>  <NA>  <NA> 
 8 New Customers      Bought more recently, but not often      4– 5  <= 1  <= 1 
 9 <NA>               <NA>                                     <NA>  <NA>  <NA> 
10 Promising          Recent shoppers, but haven’t spent much  3– 4  <= 1  <= 1 
# ℹ 13 more rows
…
