Data Wrangling with R and the Tidyverse – Iterating on Data
…
And feed it to read_csv()

… using map() and binding the resulting list into a tibble.

df <- filenames |>
  map(read_csv) |> 
  list_rbind(names_to = "congress") |>
  janitor::clean_names()

df

# A tibble: 20,580 × 26
   congress last   first middle suffix nickname born  death sex   position party
      <int> <chr>  <chr> <chr>  <chr>  <chr>    <chr> <chr> <chr> <chr>    <chr>
 1        1 Abern… Thom… Gerst… <NA>   <NA>     05/1… 01/2… M     U.S. Re… Demo…
 2        1 Adams  Sher… <NA>   <NA>   <NA>     01/0… 10/2… M     U.S. Re… Repu…
 3        1 Aiken  Geor… David  <NA>   <NA>     08/2… 11/1… M     U.S. Se… Repu…
 4        1 Allen  Asa   Leona… <NA>   <NA>     01/0… 01/0… M     U.S. Re… Demo…
 5        1 Allen  Leo   Elwood <NA>   <NA>     10/0… 01/1… M     U.S. Re… Repu…
 6        1 Almond J.    Linds… Jr.    <NA>     06/1… 04/1… M     U.S. Re… Demo…
 7        1 Ander… Herm… Carl   <NA>   <NA>     01/2… 07/2… M     U.S. Re… Repu…
 8        1 Ander… Clin… Presba <NA>   <NA>     10/2… 11/1… M     U.S. Re… Demo…
 9        1 Ander… John  Zuing… <NA>   <NA>     03/2… 02/0… M     U.S. Re… Repu…
10        1 Andre… Augu… Herman <NA>   <NA>     10/1… 01/1… M     U.S. Re… Repu…
# ℹ 20,570 more rows
# ℹ 15 more variables: state <chr>, district <chr>, start <chr>, end <chr>,
#   religion <chr>, race <chr>, educational_attainment <chr>, job_type1 <chr>,
#   job_type2 <chr>, job_type3 <chr>, job_type4 <chr>, job_type5 <chr>,
#   mil1 <chr>, mil2 <chr>, mil3 <chr>
…
read_csv() can do this directly

In fact map() is not required for this particular use:

tmp <- read_csv(filenames, id = "path",
                name_repair = janitor::make_clean_names)

tmp |>
  mutate(congress = str_extract(path, "_\\d{2,3}_congress"),
         congress = str_extract(congress, "\\d{2,3}")) |>
  relocate(congress)

# A tibble: 20,580 × 27
   congress path   last  first middle suffix nickname born  death sex   position
   <chr>    <chr>  <chr> <chr> <chr>  <chr>  <chr>    <chr> <chr> <chr> <chr>   
 1 79       /User… Aber… Thom… Gerst… <NA>   <NA>     05/1… 01/2… M     U.S. Re…
 2 79       /User… Adams Sher… <NA>   <NA>   <NA>     01/0… 10/2… M     U.S. Re…
 3 79       /User… Aiken Geor… David  <NA>   <NA>     08/2… 11/1… M     U.S. Se…
 4 79       /User… Allen Asa   Leona… <NA>   <NA>     01/0… 01/0… M     U.S. Re…
 5 79       /User… Allen Leo   Elwood <NA>   <NA>     10/0… 01/1… M     U.S. Re…
 6 79       /User… Almo… J.    Linds… Jr.    <NA>     06/1… 04/1… M     U.S. Re…
 7 79       /User… Ande… Herm… Carl   <NA>   <NA>     01/2… 07/2… M     U.S. Re…
 8 79       /User… Ande… Clin… Presba <NA>   <NA>     10/2… 11/1… M     U.S. Re…
 9 79       /User… Ande… John  Zuing… <NA>   <NA>     03/2… 02/0… M     U.S. Re…
10 79       /User… Andr… Augu… Herman <NA>   <NA>     10/1… 01/1… M     U.S. Re…
# ℹ 20,570 more rows
# ℹ 16 more variables: party <chr>, state <chr>, district <chr>, start <chr>,
#   end <chr>, religion <chr>, race <chr>, educational_attainment <chr>,
#   job_type1 <chr>, job_type2 <chr>, job_type3 <chr>, job_type4 <chr>,
#   job_type5 <chr>, mil1 <chr>, mil2 <chr>, mil3 <chr>
…
Iterating on the US Census

All counties in New York State for a specific year

out <- get_acs(geography = "county",
                    variables = "B19013_001",
                    state = "NY",
                    survey = "acs1",
                    year = 2005)

out

# A tibble: 38 × 5
   GEOID NAME                         variable   estimate   moe
   <chr> <chr>                        <chr>         <dbl> <dbl>
 1 36001 Albany County, New York      B19013_001    50054  2030
 2 36005 Bronx County, New York       B19013_001    29228   853
 3 36007 Broome County, New York      B19013_001    36394  2340
 4 36009 Cattaraugus County, New York B19013_001    37580  2282
 5 36011 Cayuga County, New York      B19013_001    42057  2406
 6 36013 Chautauqua County, New York  B19013_001    35495  2077
 7 36015 Chemung County, New York     B19013_001    37418  3143
 8 36019 Clinton County, New York     B19013_001    44757  3500
 9 36027 Dutchess County, New York    B19013_001    61889  2431
10 36029 Erie County, New York        B19013_001    41967  1231
# ℹ 28 more rows
…
Iterating on the US Census

This works with map() just fine:

df <- 2005:2019 |>
  map(\(x) get_acs(geography = "county",
                   variables = "B19013_001",
                   state = "NY",
                   survey = "acs1",
                   year = x)) |>
  list_rbind(names_to = "year")

df

# A tibble: 580 × 6
    year GEOID NAME                         variable   estimate   moe
   <int> <chr> <chr>                        <chr>         <dbl> <dbl>
 1     1 36001 Albany County, New York      B19013_001    50054  2030
 2     1 36005 Bronx County, New York       B19013_001    29228   853
 3     1 36007 Broome County, New York      B19013_001    36394  2340
 4     1 36009 Cattaraugus County, New York B19013_001    37580  2282
 5     1 36011 Cayuga County, New York      B19013_001    42057  2406
 6     1 36013 Chautauqua County, New York  B19013_001    35495  2077
 7     1 36015 Chemung County, New York     B19013_001    37418  3143
 8     1 36019 Clinton County, New York     B19013_001    44757  3500
 9     1 36027 Dutchess County, New York    B19013_001    61889  2431
10     1 36029 Erie County, New York        B19013_001    41967  1231
# ℹ 570 more rows
…
df <- 2005:2019 |>
  set_names() |>
  map(\(x) get_acs(geography = "county",
                   variables = "B19013_001",
                   state = "NY",
                   survey = "acs1",
                   year = x)) |>
  list_rbind(names_to = "year") |>
  mutate(year = as.integer(year))

Iterating on the US Census

df

# A tibble: 580 × 6
    year GEOID NAME                         variable   estimate   moe
   <int> <chr> <chr>                        <chr>         <dbl> <dbl>
 1  2005 36001 Albany County, New York      B19013_001    50054  2030
 2  2005 36005 Bronx County, New York       B19013_001    29228   853
 3  2005 36007 Broome County, New York      B19013_001    36394  2340
 4  2005 36009 Cattaraugus County, New York B19013_001    37580  2282
 5  2005 36011 Cayuga County, New York      B19013_001    42057  2406
 6  2005 36013 Chautauqua County, New York  B19013_001    35495  2077
 7  2005 36015 Chemung County, New York     B19013_001    37418  3143
 8  2005 36019 Clinton County, New York     B19013_001    44757  3500
 9  2005 36027 Dutchess County, New York    B19013_001    61889  2431
10  2005 36029 Erie County, New York        B19013_001    41967  1231
# ℹ 570 more rows
…
Example: cleaning up congress

Cleaning up congress

df <- filenames |>
  map(read_csv) |> 
  list_rbind(names_to = "congress") |>
  janitor::clean_names()

df |>
  select(born, death, start, end)

# A tibble: 20,580 × 4
   born       death      start      end       
   <chr>      <chr>      <chr>      <chr>     
 1 05/16/1903 01/23/1953 01/03/1945 01/03/1953
 2 01/08/1899 10/27/1986 01/03/1945 01/03/1947
 3 08/20/1892 11/19/1984 01/03/1945 01/03/1979
 4 01/05/1891 01/05/1969 01/03/1945 01/03/1953
 5 10/05/1898 01/19/1973 01/03/1945 01/02/1949
 6 06/15/1898 04/14/1986 02/04/1946 04/17/1948
 7 01/27/1897 07/26/1978 01/03/1945 01/03/1963
 8 10/23/1895 11/11/1975 01/03/1941 06/30/1945
 9 03/22/1904 02/09/1981 01/03/1945 01/03/1953
10 10/11/1890 01/14/1958 01/03/1945 01/14/1958
# ℹ 20,570 more rows
…
In particular it has many convenience functions to help with the many different ways that people encode dates that ought to be encoded as YYYY-MM-DD.

Cleaning up congress

library(lubridate)

date_recodes <- c("born", "death", "start", "end")
df <- df |>
    mutate(across(any_of(date_recodes), mdy),
           congress = as.integer(congress) + 78)

df

# A tibble: 20,580 × 26
   congress last      first   middle suffix nickname born       death      sex  
      <dbl> <chr>     <chr>   <chr>  <chr>  <chr>    <date>     <date>     <chr>
 1       79 Abernethy Thomas  Gerst… <NA>   <NA>     1903-05-16 1953-01-23 M    
 2       79 Adams     Sherman <NA>   <NA>   <NA>     1899-01-08 1986-10-27 M    
 3       79 Aiken     George  David  <NA>   <NA>     1892-08-20 1984-11-19 M    
 4       79 Allen     Asa     Leona… <NA>   <NA>     1891-01-05 1969-01-05 M    
 5       79 Allen     Leo     Elwood <NA>   <NA>     1898-10-05 1973-01-19 M    
 6       79 Almond    J.      Linds… Jr.    <NA>     1898-06-15 1986-04-14 M    
 7       79 Andersen  Herman  Carl   <NA>   <NA>     1897-01-27 1978-07-26 M    
 8       79 Anderson  Clinton Presba <NA>   <NA>     1895-10-23 1975-11-11 M    
 9       79 Anderson  John    Zuing… <NA>   <NA>     1904-03-22 1981-02-09 M    
10       79 Andresen  August  Herman <NA>   <NA>     1890-10-11 1958-01-14 M    
# ℹ 20,570 more rows
# ℹ 17 more variables: position <chr>, party <chr>, state <chr>,
#   district <chr>, start <date>, end <date>, religion <chr>, race <chr>,
#   educational_attainment <chr>, job_type1 <chr>, job_type2 <chr>,
#   job_type3 <chr>, job_type4 <chr>, job_type5 <chr>, mil1 <chr>, mil2 <chr>,
#   mil3 <chr>

Cleaning up congress

sessions <- tibble(congress = 79:116,
                   start_year = seq(1945, 2019, by = 2),
                   end_year = seq(1947, 2021, by = 2)) |>
  mutate(start_year = ymd(paste(start_year, "01", "03", sep = "-")),
         end_year = ymd(paste(end_year, "01", "03", sep = "-")))

sessions

# A tibble: 38 × 3
   congress start_year end_year  
      <int> <date>     <date>    
 1       79 1945-01-03 1947-01-03
 2       80 1947-01-03 1949-01-03
 3       81 1949-01-03 1951-01-03
 4       82 1951-01-03 1953-01-03
 5       83 1953-01-03 1955-01-03
 6       84 1955-01-03 1957-01-03
 7       85 1957-01-03 1959-01-03
 8       86 1959-01-03 1961-01-03
 9       87 1961-01-03 1963-01-03
10       88 1963-01-03 1965-01-03
# ℹ 28 more rows

We’re going to join these tables

The big table:

df |>
  select(congress, last, born)

# A tibble: 20,580 × 3
   congress last      born      
      <dbl> <chr>     <date>    
 1       79 Abernethy 1903-05-16
 2       79 Adams     1899-01-08
 3       79 Aiken     1892-08-20
 4       79 Allen     1891-01-05
 5       79 Allen     1898-10-05
 6       79 Almond    1898-06-15
 7       79 Andersen  1897-01-27
 8       79 Anderson  1895-10-23
 9       79 Anderson  1904-03-22
10       79 Andresen  1890-10-11
# ℹ 20,570 more rows

The smaller table

sessions

# A tibble: 38 × 3
   congress start_year end_year  
      <int> <date>     <date>    
 1       79 1945-01-03 1947-01-03
 2       80 1947-01-03 1949-01-03
 3       81 1949-01-03 1951-01-03
 4       82 1951-01-03 1953-01-03
 5       83 1953-01-03 1955-01-03
 6       84 1955-01-03 1957-01-03
 7       85 1957-01-03 1959-01-03
 8       86 1959-01-03 1961-01-03
 9       87 1961-01-03 1963-01-03
10       88 1963-01-03 1965-01-03
# ℹ 28 more rows

We’re going to join these tables

We will use left_join() which is what you want most of the time when you are looking to merge a smaller table with additional information into a larger main one.

df <- left_join(df, sessions) |>
  relocate(start_year:end_year, .after = congress)

Joining with `by = join_by(congress)`

df

# A tibble: 20,580 × 28
   congress start_year end_year   last   first middle suffix nickname born      
      <dbl> <date>     <date>     <chr>  <chr> <chr>  <chr>  <chr>    <date>    
 1       79 1945-01-03 1947-01-03 Abern… Thom… Gerst… <NA>   <NA>     1903-05-16
 2       79 1945-01-03 1947-01-03 Adams  Sher… <NA>   <NA>   <NA>     1899-01-08
 3       79 1945-01-03 1947-01-03 Aiken  Geor… David  <NA>   <NA>     1892-08-20
 4       79 1945-01-03 1947-01-03 Allen  Asa   Leona… <NA>   <NA>     1891-01-05
 5       79 1945-01-03 1947-01-03 Allen  Leo   Elwood <NA>   <NA>     1898-10-05
 6       79 1945-01-03 1947-01-03 Almond J.    Linds… Jr.    <NA>     1898-06-15
 7       79 1945-01-03 1947-01-03 Ander… Herm… Carl   <NA>   <NA>     1897-01-27
 8       79 1945-01-03 1947-01-03 Ander… Clin… Presba <NA>   <NA>     1895-10-23
 9       79 1945-01-03 1947-01-03 Ander… John  Zuing… <NA>   <NA>     1904-03-22
10       79 1945-01-03 1947-01-03 Andre… Augu… Herman <NA>   <NA>     1890-10-11
# ℹ 20,570 more rows
# ℹ 19 more variables: death <date>, sex <chr>, position <chr>, party <chr>,
#   state <chr>, district <chr>, start <date>, end <date>, religion <chr>,
#   race <chr>, educational_attainment <chr>, job_type1 <chr>, job_type2 <chr>,
#   job_type3 <chr>, job_type4 <chr>, job_type5 <chr>, mil1 <chr>, mil2 <chr>,
#   mil3 <chr>
…
# A tibble: 1 × 2
  subject   age
  <chr>   <dbl>
1 C          NA

A quick plug for naniar and visdat

library(naniar)
library(visdat)

organdata

# A tibble: 238 × 21
   country   year       donors   pop pop_dens   gdp gdp_lag health health_lag
   <chr>     <date>      <dbl> <int>    <dbl> <int>   <int>  <dbl>      <dbl>
 1 Australia NA          NA    17065    0.220 16774   16591   1300       1224
 2 Australia 1991-01-01  12.1  17284    0.223 17171   16774   1379       1300
 3 Australia 1992-01-01  12.4  17495    0.226 17914   17171   1455       1379
 4 Australia 1993-01-01  12.5  17667    0.228 18883   17914   1540       1455
 5 Australia 1994-01-01  10.2  17855    0.231 19849   18883   1626       1540
 6 Australia 1995-01-01  10.2  18072    0.233 21079   19849   1737       1626
 7 Australia 1996-01-01  10.6  18311    0.237 21923   21079   1846       1737
 8 Australia 1997-01-01  10.3  18518    0.239 22961   21923   1948       1846
 9 Australia 1998-01-01  10.5  18711    0.242 24148   22961   2077       1948
10 Australia 1999-01-01   8.67 18926    0.244 25445   24148   2231       2077
# ℹ 228 more rows
# ℹ 12 more variables: pubhealth <dbl>, roads <dbl>, cerebvas <int>,
#   assault <int>, external <int>, txp_pop <dbl>, world <chr>, opt <chr>,
#   consent_law <chr>, consent_practice <chr>, consistent <chr>, ccode <chr>
…
A quick plug for naniar and visdat

miss_var_summary(organdata)

# A tibble: 21 × 3
   variable  n_miss pct_miss
   <chr>      <int>    <num>
 1 year          34    14.3 
 2 donors        34    14.3 
 3 opt           28    11.8 
 4 pubhealth     21     8.82
 5 pop           17     7.14
 6 pop_dens      17     7.14
 7 gdp           17     7.14
 8 roads         17     7.14
 9 cerebvas      17     7.14
10 assault       17     7.14
# ℹ 11 more rows

A quick plug for naniar and visdat

miss_case_summary(organdata)

# A tibble: 238 × 3
    case n_miss pct_miss
   <int>  <int>    <dbl>
 1    84     12     57.1
 2   182     12     57.1
 3   210     12     57.1
 4    14     11     52.4
 5    28     11     52.4
 6    42     11     52.4
 7    56     11     52.4
 8    70     11     52.4
 9    98     11     52.4
10   112     11     52.4
# ℹ 228 more rows
…
Upset plots and a bit of wrangling

Uncounting tables:

indvs <- symptom_mat |>
    uncount(count)

indvs

# A tibble: 1,764 × 7
   subset  Anosmia Cough Fatigue Diarrhea Breath Fever
   <chr>   <lgl>   <lgl> <lgl>   <lgl>    <lgl>  <lgl>
 1 Anosmia TRUE    FALSE FALSE   FALSE    FALSE  FALSE
 2 Anosmia TRUE    FALSE FALSE   FALSE    FALSE  FALSE
 3 Anosmia TRUE    FALSE FALSE   FALSE    FALSE  FALSE
 4 Anosmia TRUE    FALSE FALSE   FALSE    FALSE  FALSE
 5 Anosmia TRUE    FALSE FALSE   FALSE    FALSE  FALSE
 6 Anosmia TRUE    FALSE FALSE   FALSE    FALSE  FALSE
 7 Anosmia TRUE    FALSE FALSE   FALSE    FALSE  FALSE
 8 Anosmia TRUE    FALSE FALSE   FALSE    FALSE  FALSE
 9 Anosmia TRUE    FALSE FALSE   FALSE    FALSE  FALSE
10 Anosmia TRUE    FALSE FALSE   FALSE    FALSE  FALSE
# ℹ 1,754 more rows
…
Residual standard error: 2.114 on 28 degrees of freedom
Multiple R-squared:  0.5572,    Adjusted R-squared:  0.5414 
F-statistic: 35.24 on 1 and 28 DF,  p-value: 2.173e-06

Grouped analysis and list columns

out_le <- gapminder |>
    group_by(continent, year) |>
    nest()

out_le

# A tibble: 60 × 3
# Groups:   continent, year [60]
   continent  year data             
   <fct>     <int> <list>           
 1 Asia       1952 <tibble [33 × 4]>
 2 Asia       1957 <tibble [33 × 4]>
 3 Asia       1962 <tibble [33 × 4]>
 4 Asia       1967 <tibble [33 × 4]>
 5 Asia       1972 <tibble [33 × 4]>
 6 Asia       1977 <tibble [33 × 4]>
 7 Asia       1982 <tibble [33 × 4]>
 8 Asia       1987 <tibble [33 × 4]>
 9 Asia       1992 <tibble [33 × 4]>
10 Asia       1997 <tibble [33 × 4]>
# ℹ 50 more rows

Think of nesting as a kind of “super-grouping”. Look in the object inspector.

Grouped analysis and list columns

It’s still in there.

out_le |> filter(continent == "Europe" & year == 1977) |>
    unnest(cols = c(data))

# A tibble: 30 × 6
# Groups:   continent, year [1]
   continent  year country                lifeExp      pop gdpPercap
   <fct>     <int> <fct>                    <dbl>    <int>     <dbl>
 1 Europe     1977 Albania                   68.9  2509048     3533.
 2 Europe     1977 Austria                   72.2  7568430    19749.
 3 Europe     1977 Belgium                   72.8  9821800    19118.
 4 Europe     1977 Bosnia and Herzegovina    69.9  4086000     3528.
 5 Europe     1977 Bulgaria                  70.8  8797022     7612.
 6 Europe     1977 Croatia                   70.6  4318673    11305.
 7 Europe     1977 Czech Republic            70.7 10161915    14800.
 8 Europe     1977 Denmark                   74.7  5088419    20423.
 9 Europe     1977 Finland                   72.5  4738902    15605.
10 Europe     1977 France                    73.8 53165019    18293.
# ℹ 20 more rows
…
fit_ols <- function(df) {
    lm(lifeExp ~ log(gdpPercap), data = df)
}

out_le <- gapminder |>
    group_by(continent, year) |>
    nest() |>
    mutate(model = map(data, fit_ols)) 

Grouped analysis and list columns

out_le

# A tibble: 60 × 4
# Groups:   continent, year [60]
   continent  year data              model 
   <fct>     <int> <list>            <list>
 1 Asia       1952 <tibble [33 × 4]> <lm>  
 2 Asia       1957 <tibble [33 × 4]> <lm>  
 3 Asia       1962 <tibble [33 × 4]> <lm>  
 4 Asia       1967 <tibble [33 × 4]> <lm>  
 5 Asia       1972 <tibble [33 × 4]> <lm>  
 6 Asia       1977 <tibble [33 × 4]> <lm>  
 7 Asia       1982 <tibble [33 × 4]> <lm>  
 8 Asia       1987 <tibble [33 × 4]> <lm>  
 9 Asia       1992 <tibble [33 × 4]> <lm>  
10 Asia       1997 <tibble [33 × 4]> <lm>  
# ℹ 50 more rows
…
out_tidy <- gapminder |>
    group_by(continent, year) |>
    nest() |>
    mutate(model = map(data, fit_ols),
           tidied = map(model, tidy)) |>
    unnest(cols = c(tidied)) |>
    filter(term %nin% "(Intercept)" &
           continent %nin% "Oceania")

Grouped analysis and list columns

out_tidy

# A tibble: 48 × 9
# Groups:   continent, year [48]
   continent  year data     model  term     estimate std.error statistic p.value
   <fct>     <int> <list>   <list> <chr>       <dbl>     <dbl>     <dbl>   <dbl>
 1 Asia       1952 <tibble> <lm>   log(gdp…     4.16     1.25       3.33 2.28e-3
 2 Asia       1957 <tibble> <lm>   log(gdp…     4.17     1.28       3.26 2.71e-3
 3 Asia       1962 <tibble> <lm>   log(gdp…     4.59     1.24       3.72 7.94e-4
 4 Asia       1967 <tibble> <lm>   log(gdp…     4.50     1.15       3.90 4.77e-4
 5 Asia       1972 <tibble> <lm>   log(gdp…     4.44     1.01       4.41 1.16e-4
 6 Asia       1977 <tibble> <lm>   log(gdp…     4.87     1.03       4.75 4.42e-5
 7 Asia       1982 <tibble> <lm>   log(gdp…     4.78     0.852      5.61 3.77e-6
 8 Asia       1987 <tibble> <lm>   log(gdp…     5.17     0.727      7.12 5.31e-8
 9 Asia       1992 <tibble> <lm>   log(gdp…     5.09     0.649      7.84 7.60e-9
10 Asia       1997 <tibble> <lm>   log(gdp…     5.11     0.628      8.15 3.35e-9
# ℹ 38 more rows
…
