Data Wrangling with R and the Tidyverse – Wrangling with Databases
…
“Big” Data

What we’re talking about

Mostly in this case, datasets that are nominally larger than your laptop’s memory.

There are other more specific uses, and truly huge data is beyond the scope of the course. But we can look at methods for working with data that’s “big” for all practical purposes.

Databases

When we’re working with data in the social sciences the basic case is a single table that we’re going to do something with, like run a regression or make a plot.

gapminder

# A tibble: 1,704 × 6
   country     continent  year lifeExp      pop gdpPercap
   <fct>       <fct>     <int>   <dbl>    <int>     <dbl>
 1 Afghanistan Asia       1952    28.8  8425333      779.
 2 Afghanistan Asia       1957    30.3  9240934      821.
 3 Afghanistan Asia       1962    32.0 10267083      853.
 4 Afghanistan Asia       1967    34.0 11537966      836.
 5 Afghanistan Asia       1972    36.1 13079460      740.
 6 Afghanistan Asia       1977    38.4 14880372      786.
 7 Afghanistan Asia       1982    39.9 12881816      978.
 8 Afghanistan Asia       1987    40.8 13867957      852.
 9 Afghanistan Asia       1992    41.7 16317921      649.
10 Afghanistan Asia       1997    41.8 22227415      635.
# ℹ 1,694 more rows

But the bigger a dataset gets, the more we have to think about whether we really want (or even can have) all of it in memory all the time.

Databases

In addition, much of what we want to do with a specific dataset will involve actually acting on some relatively small subset of it.

gapminder |> 
  select(gdpPercap, lifeExp)

# A tibble: 1,704 × 2
   gdpPercap lifeExp
       <dbl>   <dbl>
 1      779.    28.8
 2      821.    30.3
 3      853.    32.0
 4      836.    34.0
 5      740.    36.1
 6      786.    38.4
 7      978.    39.9
 8      852.    40.8
 9      649.    41.7
10      635.    41.8
# ℹ 1,694 more rows

Databases

In addition, much of what we want to do with a specific dataset will involve actually acting on some relatively small subset of it.

gapminder |> 
  filter(continent == "Europe", 
         year == 1977)

# A tibble: 30 × 6
   country                continent  year lifeExp      pop gdpPercap
   <fct>                  <fct>     <int>   <dbl>    <int>     <dbl>
 1 Albania                Europe     1977    68.9  2509048     3533.
 2 Austria                Europe     1977    72.2  7568430    19749.
 3 Belgium                Europe     1977    72.8  9821800    19118.
 4 Bosnia and Herzegovina Europe     1977    69.9  4086000     3528.
 5 Bulgaria               Europe     1977    70.8  8797022     7612.
 6 Croatia                Europe     1977    70.6  4318673    11305.
 7 Czech Republic         Europe     1977    70.7 10161915    14800.
 8 Denmark                Europe     1977    74.7  5088419    20423.
 9 Finland                Europe     1977    72.5  4738902    15605.
10 France                 Europe     1977    73.8 53165019    18293.
# ℹ 20 more rows
…
There’s no free lunch. We want storage methods to be efficient and queries to be fast because the datasets are gonna be gigantic, and accessing them will take time.

Database layouts

A real database is usually not a single giant table. Instead it is more like a list of tables that are partially connected through keys shared between tables. Those keys are indexed and the tables are stored in a tree-like way that makes searching much faster than just going down each row and looking for matches.

From a social science perspective, putting things in different tables might be thought of a matter of logically organizing entities at different units of observation. Querying tables is a matter of assembling tables ad hoc at various units of analysis.

Database layouts

gapminder_xtra <- read_csv(here("data", "gapminder_xtra.csv"))
gapminder_xtra

# A tibble: 1,704 × 13
   country     continent  year lifeExp      pop gdpPercap area_pct pop_pct
   <chr>       <chr>     <dbl>   <dbl>    <dbl>     <dbl>    <dbl>   <dbl>
 1 Afghanistan Asia       1952    28.8  8425333      779.     29.8    59.4
 2 Afghanistan Asia       1957    30.3  9240934      821.     29.8    59.4
 3 Afghanistan Asia       1962    32.0 10267083      853.     29.8    59.4
 4 Afghanistan Asia       1967    34.0 11537966      836.     29.8    59.4
 5 Afghanistan Asia       1972    36.1 13079460      740.     29.8    59.4
 6 Afghanistan Asia       1977    38.4 14880372      786.     29.8    59.4
 7 Afghanistan Asia       1982    39.9 12881816      978.     29.8    59.4
 8 Afghanistan Asia       1987    40.8 13867957      852.     29.8    59.4
 9 Afghanistan Asia       1992    41.7 16317921      649.     29.8    59.4
10 Afghanistan Asia       1997    41.8 22227415      635.     29.8    59.4
# ℹ 1,694 more rows
# ℹ 5 more variables: gm_countries <dbl>, country_fr <chr>, iso2 <chr>,
#   iso3 <chr>, number <dbl>
…
This latter sense of a so-called repeating group is not technically a violation of 1NF if each attribute is only single-valued. The attributes themselves do not contain repeating values and therefore there is no violation of 1NF for that reason. Such a design is often considered an anti-pattern however because it constrains the table to a predetermined fixed number of values (maximum N children in a family) and because it forces queries and other business logic to be repeated for each of the columns. In other words it violates the “DRY” principle of design. Because it is generally considered poor design it suits database designers and sometimes even teachers to refer to repeated columns of this kind as a “repeating group” and a violation of the spirit of the First Normal Form.

Separate

1NF : Your table is organized as an unordered set of data, and there are no repeating columns.

2NF: You don’t repeat data in one column of your table because of another column. [nb repeating groups]

3NF: Every column in your table relates only to your table’s key – you wouldn’t have a column in a table that describes another column in your table which isn’t the key.

Database normalization

gapminder_xtra

# A tibble: 1,704 × 13
   country     continent  year lifeExp      pop gdpPercap area_pct pop_pct
   <chr>       <chr>     <dbl>   <dbl>    <dbl>     <dbl>    <dbl>   <dbl>
 1 Afghanistan Asia       1952    28.8  8425333      779.     29.8    59.4
 2 Afghanistan Asia       1957    30.3  9240934      821.     29.8    59.4
 3 Afghanistan Asia       1962    32.0 10267083      853.     29.8    59.4
 4 Afghanistan Asia       1967    34.0 11537966      836.     29.8    59.4
 5 Afghanistan Asia       1972    36.1 13079460      740.     29.8    59.4
 6 Afghanistan Asia       1977    38.4 14880372      786.     29.8    59.4
 7 Afghanistan Asia       1982    39.9 12881816      978.     29.8    59.4
 8 Afghanistan Asia       1987    40.8 13867957      852.     29.8    59.4
 9 Afghanistan Asia       1992    41.7 16317921      649.     29.8    59.4
10 Afghanistan Asia       1997    41.8 22227415      635.     29.8    59.4
# ℹ 1,694 more rows
# ℹ 5 more variables: gm_countries <dbl>, country_fr <chr>, iso2 <chr>,
#   iso3 <chr>, number <dbl>

Database normalization

gapminder

# A tibble: 1,704 × 6
   country     continent  year lifeExp      pop gdpPercap
   <fct>       <fct>     <int>   <dbl>    <int>     <dbl>
 1 Afghanistan Asia       1952    28.8  8425333      779.
 2 Afghanistan Asia       1957    30.3  9240934      821.
 3 Afghanistan Asia       1962    32.0 10267083      853.
 4 Afghanistan Asia       1967    34.0 11537966      836.
 5 Afghanistan Asia       1972    36.1 13079460      740.
 6 Afghanistan Asia       1977    38.4 14880372      786.
 7 Afghanistan Asia       1982    39.9 12881816      978.
 8 Afghanistan Asia       1987    40.8 13867957      852.
 9 Afghanistan Asia       1992    41.7 16317921      649.
10 Afghanistan Asia       1997    41.8 22227415      635.
# ℹ 1,694 more rows
…
continent_tbl

# A tibble: 5 × 5
  continent_id continent area_pct pop_pct gm_countries
         <dbl> <chr>        <dbl>   <dbl>        <dbl>
1            1 Africa        20.3    17.6           52
2            2 Americas      28.1    13             25
3            3 Asia          29.8    59.4           33
4            4 Europe         6.7     9.4           30
5            5 Oceania        5.7     0.6            2

gapminder

# A tibble: 1,704 × 6
   country     continent  year lifeExp      pop gdpPercap
   <fct>       <fct>     <int>   <dbl>    <int>     <dbl>
 1 Afghanistan Asia       1952    28.8  8425333      779.
 2 Afghanistan Asia       1957    30.3  9240934      821.
 3 Afghanistan Asia       1962    32.0 10267083      853.
 4 Afghanistan Asia       1967    34.0 11537966      836.
 5 Afghanistan Asia       1972    36.1 13079460      740.
 6 Afghanistan Asia       1977    38.4 14880372      786.
 7 Afghanistan Asia       1982    39.9 12881816      978.
 8 Afghanistan Asia       1987    40.8 13867957      852.
 9 Afghanistan Asia       1992    41.7 16317921      649.
10 Afghanistan Asia       1997    41.8 22227415      635.
# ℹ 1,694 more rows
…
continent_tbl

# A tibble: 5 × 5
  continent_id continent area_pct pop_pct gm_countries
         <dbl> <chr>        <dbl>   <dbl>        <dbl>
1            1 Africa        20.3    17.6           52
2            2 Americas      28.1    13             25
3            3 Asia          29.8    59.4           33
4            4 Europe         6.7     9.4           30
5            5 Oceania        5.7     0.6            2

country_tbl

# A tibble: 249 × 8
   country_id continent_id country     iso_country country_fr iso2  iso3  number
        <dbl>        <dbl> <chr>       <chr>       <chr>      <chr> <chr>  <dbl>
 1          1            3 Afghanistan Afghanistan Afghanist… AF    AFG        4
 2          2            4 Albania     Albania     Albanie (… AL    ALB        8
 3          3            1 Algeria     Algeria     Algérie (… DZ    DZA       12
 4          4           NA <NA>        American S… Samoa amé… AS    ASM       16
 5          5           NA <NA>        Andorra     Andorre (… AD    AND       20
 6          6            1 Angola      Angola      Angola (l… AO    AGO       24
 7          7           NA Anguilla    Anguilla    Anguilla   AI    AIA      660
 8          8           NA Antarctica  Antarctica  Antarctiq… AQ    ATA       10
 9          9           NA Antigua an… Antigua an… Antigua-e… AG    ATG       28
10         10            2 Argentina   Argentina   Argentine… AR    ARG       32
# ℹ 239 more rows

Database normalization

country_tbl

# A tibble: 249 × 8
   country_id continent_id country     iso_country country_fr iso2  iso3  number
        <dbl>        <dbl> <chr>       <chr>       <chr>      <chr> <chr>  <dbl>
 1          1            3 Afghanistan Afghanistan Afghanist… AF    AFG        4
 2          2            4 Albania     Albania     Albanie (… AL    ALB        8
 3          3            1 Algeria     Algeria     Algérie (… DZ    DZA       12
 4          4           NA <NA>        American S… Samoa amé… AS    ASM       16
 5          5           NA <NA>        Andorra     Andorre (… AD    AND       20
 6          6            1 Angola      Angola      Angola (l… AO    AGO       24
 7          7           NA Anguilla    Anguilla    Anguilla   AI    AIA      660
 8          8           NA Antarctica  Antarctica  Antarctiq… AQ    ATA       10
 9          9           NA Antigua an… Antigua an… Antigua-e… AG    ATG       28
10         10            2 Argentina   Argentina   Argentine… AR    ARG       32
# ℹ 239 more rows

year_tbl

# A tibble: 1,704 × 5
    year country_id lifeExp      pop gdpPercap
   <dbl>      <dbl>   <dbl>    <dbl>     <dbl>
 1  1952          1    28.8  8425333      779.
 2  1957          1    30.3  9240934      821.
 3  1962          1    32.0 10267083      853.
 4  1967          1    34.0 11537966      836.
 5  1972          1    36.1 13079460      740.
 6  1977          1    38.4 14880372      786.
 7  1982          1    39.9 12881816      978.
 8  1987          1    40.8 13867957      852.
 9  1992          1    41.7 16317921      649.
10  1997          1    41.8 22227415      635.
# ℹ 1,694 more rows
…
When ready, use collect()

tailnum_delay <- 
  tailnum_delay_db |>  
  collect()

tailnum_delay

# A tibble: 1,201 × 4
   tailnum mean_dep_delay mean_arr_delay     n
   <chr>            <dbl>          <dbl> <dbl>
 1 N11119            32.6           30.3   148
 2 N16919            32.4           29.9   251
 3 N14998            29.4           27.9   230
 4 N15910            29.3           27.6   280
 5 N13123            29.6           26.0   121
 6 N11192            27.5           25.9   154
 7 N14950            26.2           25.3   219
 8 N21130            27.0           25.0   126
 9 N24128            24.8           24.9   129
10 N22971            26.5           24.7   230
# ℹ 1,191 more rows
…
