Data Wrangling with R and the Tidyverse – Parallel Processing
…
process_raster(all_fnames[1000]) |> 
  as_tibble()

# A tibble: 1 × 2
  date       wt_mean_sst
  <date>           <dbl>
1 1984-05-27        20.6

Try it on one chunk of data files:

process_raster(chunked_fnames[[500]]) |> 
  as_tibble()

# A tibble: 25 × 2
   date       wt_mean_sst
   <date>           <dbl>
 1 2015-11-02        22.8
 2 2015-11-03        22.8
 3 2015-11-04        22.8
 4 2015-11-05        22.7
 5 2015-11-06        22.7
 6 2015-11-07        22.7
 7 2015-11-08        22.6
 8 2015-11-09        22.5
 9 2015-11-10        22.5
10 2015-11-11        22.4
# ℹ 15 more rows
…
NOAA Temperature Data

Make our cores work even harder

## Seas of the world polygons
seas <- sf::read_sf(here("seas")) 

seas

Simple feature collection with 101 features and 10 fields
Geometry type: MULTIPOLYGON
Dimension:     XY
Bounding box:  xmin: -180 ymin: -85.5625 xmax: 180 ymax: 90
Geodetic CRS:  WGS 84
# A tibble: 101 × 11
   NAME          ID    Longitude Latitude min_X  min_Y max_X  max_Y   area MRGID
   <chr>         <chr>     <dbl>    <dbl> <dbl>  <dbl> <dbl>  <dbl>  <dbl> <dbl>
 1 Rio de La Pl… 33        -56.8   -35.1  -59.8 -36.4  -54.9 -31.5  3.18e4  4325
 2 Bass Strait   62A       146.    -39.5  144.  -41.4  150.  -37.5  1.13e5  4366
 3 Great Austra… 62        133.    -36.7  118.  -43.6  146.  -31.5  1.33e6  4276
 4 Tasman Sea    63        161.    -39.7  147.  -50.9  175.  -30    3.34e6  4365
 5 Mozambique C… 45A        40.9   -19.3   32.4 -26.8   49.2 -10.5  1.39e6  4261
 6 Savu Sea      48o       122.     -9.48 119.  -10.9  125.   -8.21 1.06e5  4343
 7 Timor Sea     48i       128.    -11.2  123.  -15.8  133.   -8.18 4.34e5  4344
 8 Bali Sea      48l       116.     -7.93 114.   -9.00 117.   -7.01 3.99e4  4340
 9 Coral Sea     64        157.    -18.2  141.  -30.0  170.   -6.79 4.13e6  4364
10 Flores Sea    48j       120.     -7.51 117.   -8.74 123.   -5.51 1.03e5  4341
# ℹ 91 more rows
# ℹ 1 more variable: geometry <MULTIPOLYGON [°]>
…
  colnames(tdf_seas) <- c("ID", paste0("d_", terra::time(terra::rast(as.character(fnames))[var])))
  tdf_seas |>
    pivot_longer(-ID, names_to = "date", values_to = "sst_wt_mean")

}

NOAA Temperature Data

Try it on one record:

process_raster_zonal(all_fnames[10000])

# A tibble: 101 × 3
   ID                     date         sst_wt_mean
   <chr>                  <chr>              <dbl>
 1 Adriatic Sea           d_2009-01-20       13.5 
 2 Aegean Sea             d_2009-01-20       15.9 
 3 Alboran Sea            d_2009-01-20       14.8 
 4 Andaman or Burma Sea   d_2009-01-20       27.1 
 5 Arabian Sea            d_2009-01-20       26.6 
 6 Arafura Sea            d_2009-01-20       29.6 
 7 Arctic Ocean           d_2009-01-20       -1.74
 8 Baffin Bay             d_2009-01-20       -1.58
 9 Balearic (Iberian Sea) d_2009-01-20       14.0 
10 Bali Sea               d_2009-01-20       28.7 
# ℹ 91 more rows

We’ll tidy the date later. You can see we get 101 summary records per day.

NOAA Temperature Data

Try it on one chunk of records:

process_raster_zonal(chunked_fnames[[1]])

# A tibble: 2,525 × 3
   ID           date         sst_wt_mean
   <chr>        <chr>              <dbl>
 1 Adriatic Sea d_1981-09-01        23.0
 2 Adriatic Sea d_1981-09-02        23.1
 3 Adriatic Sea d_1981-09-03        22.9
 4 Adriatic Sea d_1981-09-04        22.9
 5 Adriatic Sea d_1981-09-05        22.5
 6 Adriatic Sea d_1981-09-06        22.4
 7 Adriatic Sea d_1981-09-07        22.4
 8 Adriatic Sea d_1981-09-08        22.5
 9 Adriatic Sea d_1981-09-09        22.6
10 Adriatic Sea d_1981-09-10        22.5
# ℹ 2,515 more rows
…
Big op: 48.553 sec elapsed

NOAA Temperature Data

seameans_df

# A tibble: 1,570,449 × 8
   sea          date       sst_wt_mean  year month   day yrday season
   <chr>        <date>           <dbl> <dbl> <dbl> <int> <dbl> <fct> 
 1 Adriatic Sea 1981-09-01        23.0  1981     9     1   244 Summer
 2 Adriatic Sea 1981-09-02        23.1  1981     9     2   245 Autumn
 3 Adriatic Sea 1981-09-03        22.9  1981     9     3   246 Autumn
 4 Adriatic Sea 1981-09-04        22.9  1981     9     4   247 Autumn
 5 Adriatic Sea 1981-09-05        22.5  1981     9     5   248 Autumn
 6 Adriatic Sea 1981-09-06        22.4  1981     9     6   249 Autumn
 7 Adriatic Sea 1981-09-07        22.4  1981     9     7   250 Autumn
 8 Adriatic Sea 1981-09-08        22.5  1981     9     8   251 Autumn
 9 Adriatic Sea 1981-09-09        22.6  1981     9     9   252 Autumn
10 Adriatic Sea 1981-09-10        22.5  1981     9    10   253 Autumn
# ℹ 1,570,439 more rows
…
