Data Wrangling with R and the Tidyverse – Making tidy easier
…
Best demonstrated live

When asking for help, make a reproducible example

library(reprex)

library(tidyverse)

starwars |> 
  count(homeworld, species) |> 
  mutate(pct = n / sum(n) * 100) |> 
  arrange(desc(pct))

# A tibble: 57 × 4
   homeworld species      n   pct
   <chr>     <chr>    <int> <dbl>
 1 Tatooine  Human        8  9.20
 2 <NA>      Human        6  6.90
 3 Naboo     Human        5  5.75
 4 Alderaan  Human        3  3.45
 5 Naboo     Gungan       3  3.45
 6 <NA>      Droid        3  3.45
 7 Corellia  Human        2  2.30
 8 Coruscant Human        2  2.30
 9 Kamino    Kaminoan     2  2.30
10 Kashyyyk  Wookiee      2  2.30
# ℹ 47 more rows
…
NA
1
5
11
1

Tables, tables, tables

The gtsummary package is very powerful. There are a number of other very good tidy table-making options too.

library(gtsummary)

trial

# A tibble: 200 × 8
   trt      age marker stage grade response death ttdeath
   <chr>  <dbl>  <dbl> <fct> <fct>    <int> <int>   <dbl>
 1 Drug A    23  0.16  T1    II           0     0    24  
 2 Drug B     9  1.11  T2    I            1     0    24  
 3 Drug A    31  0.277 T1    II           0     0    24  
 4 Drug A    NA  2.07  T3    III          1     1    17.6
 5 Drug A    51  2.77  T4    III          1     1    16.4
 6 Drug B    39  0.613 T4    I            0     1    15.6
 7 Drug A    37  0.354 T1    II           0     0    24  
 8 Drug A    32  1.74  T1    I            0     1    18.4
 9 Drug A    31  0.144 T1    II           0     0    24  
10 Drug B    34  0.205 T3    I            0     1    10.5
# ℹ 190 more rows
…
The Intercept term for Africa was 7.60 [2.43, 12.77].

For Europe it was 12.97 [9.19, 16.74].

For more, see this post by TJ Mahr:

https://www.tjmahr.com/lists-knitr-secret-weapon/

Test the output of your functions

countries <- read_csv(here("data", "countries.csv"))

countries

# A tibble: 213 × 4
   cname       iso3  iso2  continent    
   <chr>       <chr> <chr> <chr>        
 1 Afghanistan AFG   AF    Asia         
 2 Algeria     DZA   DZ    Africa       
 3 Armenia     ARM   AM    Asia         
 4 Australia   AUS   AU    Oceania      
 5 Austria     AUT   AT    Europe       
 6 Azerbaijan  AZE   AZ    Asia         
 7 Bahrain     BHR   BH    Asia         
 8 Belarus     BLR   BY    Europe       
 9 Belgium     BEL   BE    Europe       
10 Brazil      BRA   BR    South America
# ℹ 203 more rows
…
Test the output of your functions

stmf_raw

# A tibble: 576,840 × 13
   country_code  year  week sex   split split_sex forecast approx_date age_group
   <chr>        <dbl> <dbl> <chr> <dbl>     <dbl>    <dbl> <date>      <chr>    
 1 AUS           2015     1 m         1         0        0 2015-01-04  0-14     
 2 AUS           2015     1 m         1         0        0 2015-01-04  15-64    
 3 AUS           2015     1 m         1         0        0 2015-01-04  65-74    
 4 AUS           2015     1 m         1         0        0 2015-01-04  75-84    
 5 AUS           2015     1 m         1         0        0 2015-01-04  85+      
 6 AUS           2015     1 f         1         0        0 2015-01-04  0-14     
 7 AUS           2015     1 f         1         0        0 2015-01-04  15-64    
 8 AUS           2015     1 f         1         0        0 2015-01-04  65-74    
 9 AUS           2015     1 f         1         0        0 2015-01-04  75-84    
10 AUS           2015     1 f         1         0        0 2015-01-04  85+      
# ℹ 576,830 more rows
# ℹ 4 more variables: death_count <dbl>, death_rate <dbl>, deaths_total <dbl>,
#   rate_total <dbl>
…
stmf <- left_join(stmf_raw, md_ccodes) |>
  select(country_code, cname:iso3, everything()) |>
  mutate(iso3 = replace(iso3, iso2 == "DE", "DEU"),
         iso3 = replace(iso3, iso2 == "FR", "FRA"))

Test the output of your functions

stmf

# A tibble: 576,840 × 17
   country_code cname    iso2  continent iso3   year  week sex   split split_sex
   <chr>        <chr>    <chr> <chr>     <chr> <dbl> <dbl> <chr> <dbl>     <dbl>
 1 AUS          Austral… AU    Oceania   AUS    2015     1 m         1         0
 2 AUS          Austral… AU    Oceania   AUS    2015     1 m         1         0
 3 AUS          Austral… AU    Oceania   AUS    2015     1 m         1         0
 4 AUS          Austral… AU    Oceania   AUS    2015     1 m         1         0
 5 AUS          Austral… AU    Oceania   AUS    2015     1 m         1         0
 6 AUS          Austral… AU    Oceania   AUS    2015     1 f         1         0
 7 AUS          Austral… AU    Oceania   AUS    2015     1 f         1         0
 8 AUS          Austral… AU    Oceania   AUS    2015     1 f         1         0
 9 AUS          Austral… AU    Oceania   AUS    2015     1 f         1         0
10 AUS          Austral… AU    Oceania   AUS    2015     1 f         1         0
# ℹ 576,830 more rows
# ℹ 7 more variables: forecast <dbl>, approx_date <date>, age_group <chr>,
#   death_count <dbl>, death_rate <dbl>, deaths_total <dbl>, rate_total <dbl>
…
